<?xml version="1.0" encoding="UTF-8" standalone="yes"?>
<!-- Created with sK1/UniConvertor (http://sk1project.org/) -->
<svg xmlns="http://www.w3.org/2000/svg" xmlns:xlink="http://www.w3.org/1999/xlink"
  width="595.276pt" height="841.89pt" viewBox="0 0 595.276 841.89"
  fill-rule="evenodd">
<g>
<path style="stroke:#ffbd00; stroke-width:0.850394; stroke-linejoin:round; stroke-linecap:round; fill:none" d="M 108.357 386.898L 66.8419 388.978"/>
<path style="stroke:#ffbd00; stroke-width:0.850394; stroke-linejoin:round; stroke-linecap:round; fill:none" d="M 108.628 371.297L 73.204 372.358"/>
<path style="stroke:#ffbd00; stroke-width:0.850394; stroke-linejoin:round; stroke-linecap:round; fill:none" d="M 66.8419 388.978L 6.32334 416.869"/>
<path style="stroke:#ffbd00; stroke-width:0.850394; stroke-linejoin:round; stroke-linecap:round; fill:none" d="M 60.553 375.332L 0.0344747 403.224"/>
<path style="stroke:#ffbd00; stroke-width:0.850394; stroke-linejoin:round; stroke-linecap:round; fill:none" d="M 118.004 344.912L 70.3585 303.725"/>
<path style="stroke:#ffbd00; stroke-width:0.850394; stroke-linejoin:round; stroke-linecap:round; fill:none" d="M 108.628 371.297C 116.714 371.059 123.203 364.421 123.203 356.279C 123.203 351.74 121.187 347.669 118.002 344.914"/>
<path style="stroke:#ffbd00; stroke-width:0.850394; stroke-linejoin:round; stroke-linecap:round; fill:none" d="M 147.028 350.139C 149.663 352.419 153.098 353.799 156.853 353.799C 158.63 353.799 160.335 353.49 161.918 352.923"/>
<path style="stroke:#ffbd00; stroke-width:0.850394; stroke-linejoin:round; stroke-linecap:round; fill:none" d="M 147.027 350.14L 80.1844 292.358"/>
<path style="stroke:#ffbd00; stroke-width:0.850394; stroke-linejoin:round; stroke-linecap:round; fill:none" d="M 170.159 402.564L 146.484 406.761L 121.93 391.886L 108.357 386.898"/>
<path style="stroke:#ffbd00; stroke-width:0.850394; stroke-linejoin:round; stroke-linecap:round; fill:none" d="M 173.415 447.838L 150.161 486.952L 107.955 513.641L 81.8463 529.535L 61.6077 531.32L 64.6714 506.542L 60.2037 480.425L 30.8343 462.174"/>
<path style="stroke:#ffbd00; stroke-width:0.850394; stroke-linejoin:round; stroke-linecap:round; fill:none" d="M 162.653 441.439L 140.932 477.973L 101.354 503.001L 82.7969 506.969L 80.293 505.961L 76.4234 504.384L 71.5957 472.763L 37.4429 451.539"/>
<path style="stroke:#ffbd00; stroke-width:0.850394; stroke-linejoin:round; stroke-linecap:round; fill:none" d="M 645.952 690.103L 646.01 664.673L 633.137 623.852L 613.004 596.823L 595.804 558.397L 577.125 530.949L 566.093 524.686L 547.344 532.8L 527.58 564.422L 518.371 588.95L 495.273 608.569L 467.893 610.425L 450.08 629.097L 428.845 641.617L 402.413 649.233L 408.106 677.448L 409.013 700.482"/>
<path style="stroke:#ffbd00; stroke-width:0.850394; stroke-linejoin:round; stroke-linecap:round; fill:none" d="M 666.535 679.47L 662.254 661.707L 655.567 645.857L 645.579 603.61L 632.154 593.982L 626.928 569.019L 617.857 545.967L 604.926 530.103L 588.164 509.432L 573.791 494.524L 563.222 495.939L 556.461 511.758L 531 514.578L 517.025 535.178L 501.559 574.984L 490.002 588.392L 480.868 592.21L 455.405 595.989L 427.986 614.639L 427.061 599.283L 430.953 577.7L 455.983 553.766L 452.697 506.386L 447.813 494.355L 442.324 485.828L 432.315 482.299L 415.803 475.75L 405.299 470.216L 387.8 457.154L 361.281 446.075L 350.271 442.543L 343.043 433.147L 348.065 428.709L 356.42 427.615L 398.723 441.823L 425.544 450.688L 439.486 453.686L 455.215 454.315L 467.972 456.717L 486.667 457.65L 506.843 460.365L 537.112 462.214L 546.926 453.638L 545.184 433.418L 543.42 426.001L 499.498 413.268L 475.31 406.1L 460.144 397.056L 436.001 370.922L 414.199 358.544L 379.104 334.224L 356.338 328.007L 334.529 318.474L 313.191 310.364L 290.896 306.045L 266.7 302.67L 238.216 306.398L 223.018 309.166L 235.379 299.712L 296.151 288.947L 359.736 300.008L 390.087 310.035L 435.656 342.199L 467.485 361.227L 481.119 372.631L 509.843 377.962L 540.434 378.778L 552.387 372.469L 562.84 369.512L 596.785 391.611L 610.23 405.487L 637.268 428.141L 658.419 444.35L 694.381 457.064L 703.742 443.294L 706.4 423.545L 700.487 398.931L 684.491 376.856L 655.791 365.235L 629.297 361.418L 619.99 352.824L 596.891 338.979L 571.517 327.674L 554.364 323.907L 526.012 323.096L 498.791 317.069L 483.524 304.734L 468.273 284.944L 453.769 265.155L 431.007 251.596L 405.666 239.237L 370.637 221.637L 335.99 200.312L 305.009 190.084L 327.409 183.427L 367.696 194.341L 386.695 206.312L 404.951 217.164L 430.364 223.968L 459.451 229.626L 527.643 264.821L 573.884 273.501L 611.559 276.197L 639.573 262.098L 633.644 244.566L 606.771 245.567L 578.06 238.418L 562.399 230.159L 527.381 208.087L 501.32 184.172L 462.203 160.227L 449.939 139.326L 445.856 130.371L 470.063 149.063"/>
<path style="stroke:#ffbd00; stroke-width:0.850394; stroke-linejoin:round; stroke-linecap:round; fill:none" d="M 386.176 699.026L 376.234 659.577L 380.958 641.546L 399.046 628.891L 411.115 616.223L 406.423 578.064L 417.237 566.376L 432.748 550.95L 443.885 530.63L 436.247 507.432L 434.258 496.681L 416.184 487.997L 409.255 482.76L 387.872 472.235L 369.903 463.352L 338.298 458.59L 315.26 445.982L 316.68 429.146L 327.075 420.648L 337.918 417.624L 354.065 413.976L 357.298 411.68L 368.816 416.083L 406.412 429.55L 440.732 443.45L 462.168 445.803L 484.296 448.157L 518.431 442.017L 496.793 427.686L 470.755 421.407L 434.582 399.634L 424.474 383.947L 406.04 370.252L 388.084 358.463L 354.897 342.691L 333.481 331.815L 302.582 322.509L 280.228 318.311L 253.482 319.401L 231.345 320.732L 211.25 325.03L 206.007 299.45L 220.1 285.406L 270.844 275.849L 309.158 275.929L 338.653 282.447L 378.546 294.53L 432.704 324.404L 455.724 339.89L 491.879 357.709L 505.182 364.514L 521.03 366.76L 546.118 358.715L 557.923 355.428L 628.27 384.688L 658.468 398.754L 680.9 423.115L 673.573 403.209L 656.661 382.912L 646.341 381.783L 629.406 371.799L 622.404 370.678L 606.944 360.329L 567.179 338.138L 542.851 336.609L 514.086 340.594L 471.712 310.964L 432.7 282.145L 419.474 262.225L 405.065 254.379L 382.224 247.328L 363.818 235.868L 331.39 218.442L 307.815 209.916L 289.779 197.72L 288.349 178.195L 306.445 164.609L 347.732 166.178L 373.499 183.18L 405.906 198.725L 457.908 211.023L 492.156 227.309L 540.769 249.152L 573.192 257.699L 589.782 257.369L 578.01 246.66L 555.172 238.136L 508.027 207.766L 473.8 182.641L 436.985 160.088L 416.752 141.257L 414.591 119.521L 414.983 109.209L 437.11 106.313L 466.223 111.169"/>
<path style="stroke:#ff0000; stroke-width:0.850394; stroke-linejoin:round; stroke-linecap:round; fill:none" d="M 770.431 775.406L 754.879 761.282L 748.787 767.968L 770.431 775.406z"/>
<path style="stroke:#ff0000; stroke-width:0.850394; stroke-linejoin:round; stroke-linecap:round; fill:none" d="M 324.442 496.675L 311.618 481.018L 313.944 471.784L 329.866 467.117L 345.633 474.547L 364.704 475.976L 371.376 472.848L 384.621 480.619L 394.676 486.482L 401.408 496.663L 407.357 504.104L 418.751 509.557L 424.711 508.769L 426.857 510.808L 425.743 514.083L 430.747 524.21L 434.561 529.271L 423.32 536.129L 415.676 545.663L 414.604 554.448L 416.487 558.356L 407.02 567.492L 400.231 576.667L 396.015 586.388L 394.993 594.9L 398.492 597.913L 402.067 609.781L 402.662 613.663L 396.45 619.937L 384.663 626.176L 379.254 628.974L 375.834 634.475L 371.34 644.427L 371.153 656.459L 368.276 669.963L 374.633 677.872L 378.946 688.321L 381.362 696.903L 386.611 700.666L 406.761 704.108L 412.459 723.767L 405.177 739.1L 391.894 740.124L 382.779 723.994L 373.055 707.959L 364.944 700.691L 348.778 693.606L 334.823 691.319L 334.854 677.898L 337.642 666.671L 341.951 654.74L 336.564 637.491L 335.487 621.242L 336.716 602.176L 342.752 590.091L 345.234 581.732L 347.085 574.435L 350.558 562.804L 352.54 550.487L 343.801 547.916L 337.96 544.223L 326.951 521.813L 301.039 507.538L 306.063 501.038L 322.076 506.585L 330.172 500.073L 324.442 496.675z"/>
<path style="stroke:#ff0000; stroke-width:0.850394; stroke-linejoin:round; stroke-linecap:round; fill:none" d="M 495.136 580.053L 477.164 580.011L 466.694 559.506L 494.601 527.419L 500.34 520.519L 508.089 529.02L 515.846 529.038L 508.777 554.095L 501.728 570.105L 495.136 580.053z"/>
<path style="stroke:#ff0000; stroke-width:0.850394; stroke-linejoin:round; stroke-linecap:round; fill:none" d="M 534.431 485.5L 489.568 477.447L 435.855 467.783L 430.399 481.539L 444.378 485.876L 452.697 506.386L 455.983 553.766L 430.953 577.7L 428.878 596.041L 429.887 612.124L 457.679 589.369L 463.878 581.415L 457.752 559.929L 476.122 540.008L 501.172 508.132L 512.291 513.922L 512.276 520.547L 516.333 521.498L 523.165 503.806L 544.023 492.891L 541.581 486.576L 534.431 485.5z"/>
<path style="stroke:#ff0000; stroke-width:0.850394; stroke-linejoin:round; stroke-linecap:round; fill:none" d="M 197.408 402.678L 196.706 392.552L 211.845 376.304L 227.633 365.31L 238.07 363.666L 249.961 368.415L 267.929 363.805L 284.443 358.793L 286.551 362.932L 280.774 378.584L 283.456 388.278L 283.856 391.705L 267.552 394.531L 246.617 397.47L 234.167 404.212L 228.443 395.696L 218.174 392.801L 200.611 404.134L 197.408 402.678z"/>
<path style="stroke:#ff0000; stroke-width:0.850394; stroke-linejoin:round; stroke-linecap:round; fill:none" d="M 232.648 411.22L 221.66 398.173L 204.617 404.644L 195.191 412.262L 186.075 428.213L 175.188 437.436L 176.486 443.893L 182.99 443.908L 193.019 438.674L 206.055 430L 216.317 425.175L 225.467 416.541L 232.648 411.22z"/>
<path style="stroke:#ff0000; stroke-width:0.850394; stroke-linejoin:round; stroke-linecap:round; fill:none" d="M 283.196 426.862L 274.167 419.467L 253.175 414.272L 238.15 414.237L 230.096 423.423L 219.097 423.397L 213.064 433.712L 198.026 439.186L 184.478 450.173L 172.959 450.146L 161.09 473.536L 169.886 479.688L 178.428 467.688L 190.448 467.716L 198.442 475.748L 216.973 475.791L 225.248 470.217L 236.518 470.243L 240.541 463.324L 240.571 450.303L 247.605 442.728L 258.618 442.754L 283.196 426.862z"/>
<path style="stroke:#ff0000; stroke-width:0.850394; stroke-linejoin:round; stroke-linecap:round; fill:none" d="M 180.175 605.862L 173.524 636.645L 157.241 642.632L 147.134 670.061L 134.867 662.778L 134.921 639.373L 137.432 624.917L 135.964 611.448L 126.369 599.606L 120.862 592.998L 127.067 586.767L 130.383 577.763L 121.576 560.68L 121.623 540.177L 105.176 524.113L 128.787 505.406L 151.305 501.181L 170.898 489.052L 181.913 476.487L 194.422 481.749L 212.952 481.791L 234.989 481.842L 242.482 490.374L 219.353 519.451L 196.315 529.332L 178.828 548.184L 166.686 563.225L 156.373 594.215L 180.175 605.862z"/>
<path style="stroke:#ff0000; stroke-width:0.850394; stroke-linejoin:round; stroke-linecap:round; fill:none" d="M 112.391 531.085L 118.785 546.694L 119.176 566.864L 127.583 580.258L 120.552 588.756L 108.996 595.061L 92.225 584.932L 77.9653 595.669L 73.0502 589.092L 85.9031 575.442L 96.464 557.441L 102.563 535.742L 112.391 531.085z"/>
<path style="stroke:#ff0000; stroke-width:0.850394; stroke-linejoin:round; stroke-linecap:round; fill:none" d="M 736.804 537.554L 591.619 390.116L 601.758 370.806L 657.228 391.949L 687.419 431.526L 714.976 442.052L 732.722 456.514L 732.073 479.94L 734.877 497.997L 738.202 512.702L 737.859 530.321L 736.804 537.554z"/>
<path style="stroke:#ff0000; stroke-width:0.850394; stroke-linejoin:round; stroke-linecap:round; fill:none" d="M 666.752 678.948L 635.927 694.889L 626.362 715.695L 630.884 738.473L 702.466 818.91L 710.756 811.532L 748.578 818.15L 755.881 804.382L 768.145 809.416L 777.45 815.712L 783.467 825.201L 787.67 836.374L 790.098 839.84L 795.74 841.89L 800.662 840.251L 803.677 836.185L 811.994 812.382L 812.495 807.988L 811.055 803.806L 806.73 796.82L 802.27 786.657L 800.819 775.01L 802.409 764.846L 806.608 755.369L 812.697 747.719L 818.89 742.728L 826.681 738.59L 839.971 735.274L 839.663 733.131L 724.788 732.865L 715.589 730.879L 708.003 725.309L 666.752 678.948"/>
<path style="stroke:#ff0000; stroke-width:0.850394; stroke-linejoin:round; stroke-linecap:round; fill:none" d="M 677.347 746.41L 663.223 761.962L 669.908 768.054L 677.347 746.41z"/>
</g>
</svg>