<!DOCTYPE svg PUBLIC "-//W3C//DTD SVG 1.1//EN" "http://www.w3.org/Graphics/SVG/1.1/DTD/svg11.dtd">
<!-- PDFTron PDFNet Generated! Version: 7.1.0.74195 -->
<svg version="1.1" baseProfile="Full" width="9944px" height="7030px" viewBox="0 0 9944 7030" xmlns="http://www.w3.org/2000/svg" xmlns:xlink="http://www.w3.org/1999/xlink" xmlns:cs="http://www.pdftron.com/pdf2svg" xml:space="preserve">
<defs>
</defs>
<style type="text/css">
<![CDATA[
.ps04 { stroke:#000000;fill:#000000;fill-rule:nonzero; }
.ps06 { stroke:#000000;fill:none; }
.ps03 { stroke:#00FF00;fill:none; }
.ps05 { stroke:#A50052;fill:none; }
.ps02 { stroke:#FF0000;fill:none; }
.ps01 { stroke:#FFBF00;fill:none; }
.ps07 { stroke:none;fill:#000000;fill-rule:nonzero; }
.ps00 { stroke:none;fill:none; }
.ps14 { stroke-width:0.83333;vector-effect:non-scaling-stroke; }
.ps10 { stroke-width:0.83333;vector-effect:non-scaling-stroke;stroke-linecap:round;stroke-linejoin:round; }
.ps16 { stroke-width:12; }
.ps12 { stroke-width:13; }
.ps15 { stroke-width:17; }
.ps13 { stroke-width:6; }
.ps11 { stroke-width:7; }
.ps17 { stroke-width:9; }
]]>
</style>
<clipPath id="clp1" clip-rule="nonzero">
<rect x="0" y="0" width="9944" height="7030"/>
</clipPath>
<g clip-path="url(#clp1)" transform="matrix(1 0 0 -1 -0 7030)">
<g id="xfrm1" transform="matrix(0.12 0 0 0.12 0 0)">
<g id="q2" class="ps10">
<clipPath id="clp2" clip-rule="nonzero">
<path d="M0 0 L82867 0 L82867 58583 L0 58583 Z"/>
</clipPath>
<g clip-path="url(#clp2)">
<path d="M17039 36016 L13794 35846" class="ps01 ps11"/>
<path d="M17057 37235 L14289 37146" class="ps01 ps11"/>
<path d="M13794 35846 L9069 33654" class="ps01 ps11"/>
<path d="M13300 36911 L8575 34720" class="ps01 ps11"/>
<path d="M17786 39299 L14054 42510" class="ps01 ps11"/>
<path d="M17058 37236 C17706 37257 18215 37799 18194 38448 C18183 38776 18035 39085 17786 39300" class="ps01 ps11"/>
<path d="M20056 38897 C20377 38620 20822 38538 21220 38682" class="ps01 ps11"/>
<path d="M20055 38896 L14820 43401" class="ps01 ps11"/>
<path d="M21873 34802 L20023 34470 L18101 35628 L17039 36016" class="ps01 ps11"/>
<path d="M22136 31264 L20325 28202 L17031 26108 L14993 24861 L13411 24718 L13646 26655 L13292 28696 L10993 30117" class="ps01 ps11"/>
<path d="M21293 31762 L19602 28902 L16513 26939 L15063 26625 L14867 26704 L14564 26826 L14181 29297 L11507 30950" class="ps01 ps11"/>
<path d="M59117 12412 L59117 14400 L58103 17588 L56525 19697 L55173 22698 L53708 24840 L52845 25328 L51381 24690 L49841 22215 L49126 20296 L47324 18758 L45184 18608 L43795 17145 L42137 16163 L40072 15562 L40523 13358 L40598 11558" class="ps01 ps11"/>
<path d="M60724 13247 L60386 14634 L59861 15872 L59072 19173 L58021 19923 L57608 21873 L56895 23674 L55881 24911 L54567 26524 L53441 27687 L52615 27574 L52089 26337 L50100 26112 L49011 24499 L47809 21384 L46908 20334 L46195 20034 L44205 19734 L42065 18271 L41990 19472 L42291 21159 L44243 23035 L43977 26738 L43593 27677 L43163 28343 L42380 28617 L41088 29126 L40266 29557 L38895 30574 L36821 31436 L35959 31710 L35393 32443 L35784 32791 L36437 32878 L39747 31775 L41845 31087 L42935 30855 L44165 30809 L45162 30623 L46624 30554 L48202 30345 L50568 30206 L51334 30878 L51194 32458 L51055 33038 L47619 34025 L45727 34581 L44540 35285 L42648 37324 L40941 38287 L38193 40182 L36413 40664 L34706 41405 L33037 42035 L31293 42369 L29401 42628 L27175 42332 L25988 42113 L26952 42854 L31701 43706 L36673 42853 L39048 42075 L42616 39569 L45107 38087 L46175 37198 L48421 36787 L50813 36729 L51746 37224 L52562 37457 L55220 35736 L56273 34653 L58391 32887 L60047 31624 L62861 30637 L63590 31715 L63794 33259 L63327 35182 L62073 36905 L59827 37808 L57756 38102 L57027 38772 L55219 39850 L53233 40729 L51892 41020 L49675 41079 L47546 41545 L46351 42506 L45155 44050 L44017 45595 L42236 46651 L40253 47612 L37511 48981 L34799 50642 L32376 51436 L34125 51960 L37276 51115 L38764 50182 L40193 49337 L42180 48810 L44455 48373 L49792 45634 L53408 44964 L56354 44760 L58541 45867 L58074 47237 L55974 47154 L53728 47707 L52503 48350 L49761 50069 L47720 51934 L44658 53798 L43695 55430 L43375 56129 L45270 54672" class="ps01 ps11"/>
<path d="M38812 11667 L38028 14749 L38394 16159 L39806 17152 L40747 18144 L40373 21126 L41216 22042 L42426 23251 L43293 24841 L42692 26653 L42534 27493 L41120 28169 L40577 28577 L38904 29396 L37498 30087 L35026 30453 L33223 31435 L33331 32751 L34142 33417 L34989 33655 L36251 33944 L36503 34124 L37404 33781 L40345 32736 L43031 31655 L44707 31475 L46437 31295 L49104 31781 L47410 32898 L45374 33384 L42542 35079 L41749 36304 L40306 37371 L38900 38289 L36303 39516 L34627 40362 L32210 41084 L30462 41408 L28371 41318 L26641 41210 L25071 40871 L24656 42869 L25756 43969 L29720 44726 L32715 44726 L35022 44222 L38143 43285 L42382 40959 L44184 39753 L47013 38367 L48054 37837 L49294 37664 L51253 38298 L52175 38557 L57680 36283 L60043 35188 L61801 33288 L61224 34843 L59899 36426 L59092 36513 L57766 37290 L57219 37377 L56008 38183 L52896 39910 L50994 40025 L48746 39709 L45428 42017 L42374 44263 L41336 45818 L40208 46428 L38422 46975 L36981 47868 L34443 49224 L32598 49886 L31186 50836 L31071 52362 L32483 53428 L35711 53312 L37728 51988 L40264 50779 L44331 49827 L47011 48560 L50815 46861 L53351 46199 L54648 46228 L53726 47063 L51939 47725 L48248 50091 L45568 52048 L42687 53805 L41102 55273 L40929 56972 L40957 57778 L42687 58008 L44963 57634" class="ps01 ps12"/>
<path d="M68863 5766 L67645 6867" class="ps02 ps11"/>
<path d="M68863 5766 L68391 5244" class="ps02 ps11"/>
<path d="M67645 6867 L67170 6344" class="ps02 ps11"/>
<path d="M68391 5244 L67170 6344" class="ps02 ps11"/>
<path d="M60512 8044 L60598 8158" class="ps03 ps13"/>
<path d="M61170 7458 L61175 7454 L61172 7456 Z" class="ps04 ps14"/>
<path d="M61170 7458 L61167 7459 L61175 7454 Z" class="ps04 ps14"/>
<path d="M61167 7459 L61177 7452 L61175 7454 Z" class="ps04 ps14"/>
<path d="M61167 7459 L61164 7460 L61177 7452 Z" class="ps04 ps14"/>
<path d="M61164 7460 L61178 7449 L61177 7452 Z" class="ps04 ps14"/>
<path d="M61164 7460 L61161 7460 L61178 7449 Z" class="ps04 ps14"/>
<path d="M61161 7460 L61179 7446 L61178 7449 Z" class="ps04 ps14"/>
<path d="M61161 7460 L61158 7460 L61179 7446 Z" class="ps04 ps14"/>
<path d="M61158 7460 L61180 7443 L61179 7446 Z" class="ps04 ps14"/>
<path d="M61158 7460 L61155 7459 L61180 7443 Z" class="ps04 ps14"/>
<path d="M61155 7459 L61180 7440 L61180 7443 Z" class="ps04 ps14"/>
<path d="M61155 7459 L61152 7458 L61180 7440 Z" class="ps04 ps14"/>
<path d="M61152 7458 L61180 7437 L61180 7440 Z" class="ps04 ps14"/>
<path d="M61152 7458 L61149 7456 L61180 7437 Z" class="ps04 ps14"/>
<path d="M61149 7456 L61179 7434 L61180 7437 Z" class="ps04 ps14"/>
<path d="M61149 7456 L61147 7454 L61179 7434 Z" class="ps04 ps14"/>
<path d="M61147 7454 L61178 7431 L61179 7434 Z" class="ps04 ps14"/>
<path d="M61147 7454 L61145 7452 L61178 7431 Z" class="ps04 ps14"/>
<path d="M61145 7452 L61176 7429 L61178 7431 Z" class="ps04 ps14"/>
<path d="M61145 7452 L61143 7450 L61176 7429 Z" class="ps04 ps14"/>
<path d="M61143 7450 L61174 7426 L61176 7429 Z" class="ps04 ps14"/>
<path d="M61143 7450 L61142 7447 L61174 7426 Z" class="ps04 ps14"/>
<path d="M61142 7447 L61172 7424 L61174 7426 Z" class="ps04 ps14"/>
<path d="M61142 7447 L61141 7444 L61172 7424 Z" class="ps04 ps14"/>
<path d="M61141 7444 L61169 7423 L61172 7424 Z" class="ps04 ps14"/>
<path d="M61141 7444 L61141 7441 L61169 7423 Z" class="ps04 ps14"/>
<path d="M61141 7441 L61166 7422 L61169 7423 Z" class="ps04 ps14"/>
<path d="M61141 7441 L61141 7438 L61166 7422 Z" class="ps04 ps14"/>
<path d="M61141 7438 L61163 7421 L61166 7422 Z" class="ps04 ps14"/>
<path d="M61141 7438 L61142 7435 L61163 7421 Z" class="ps04 ps14"/>
<path d="M61142 7435 L61160 7421 L61163 7421 Z" class="ps04 ps14"/>
<path d="M61142 7435 L61143 7432 L61160 7421 Z" class="ps04 ps14"/>
<path d="M61143 7432 L61157 7421 L61160 7421 Z" class="ps04 ps14"/>
<path d="M61143 7432 L61145 7429 L61157 7421 Z" class="ps04 ps14"/>
<path d="M61145 7429 L61154 7422 L61157 7421 Z" class="ps04 ps14"/>
<path d="M61145 7429 L61147 7427 L61154 7422 Z" class="ps04 ps14"/>
<path d="M61147 7427 L61152 7423 L61154 7422 Z" class="ps04 ps14"/>
<path d="M61147 7427 L61149 7425 L61152 7423 Z" class="ps04 ps14"/>
<path d="M60818 6988 L60823 6984 L60820 6986 Z" class="ps04 ps14"/>
<path d="M60818 6988 L60815 6989 L60823 6984 Z" class="ps04 ps14"/>
<path d="M60815 6989 L60825 6982 L60823 6984 Z" class="ps04 ps14"/>
<path d="M60815 6989 L60812 6990 L60825 6982 Z" class="ps04 ps14"/>
<path d="M60812 6990 L60826 6979 L60825 6982 Z" class="ps04 ps14"/>
<path d="M60812 6990 L60809 6990 L60826 6979 Z" class="ps04 ps14"/>
<path d="M60809 6990 L60827 6976 L60826 6979 Z" class="ps04 ps14"/>
<path d="M60809 6990 L60806 6990 L60827 6976 Z" class="ps04 ps14"/>
<path d="M60806 6990 L60828 6973 L60827 6976 Z" class="ps04 ps14"/>
<path d="M60806 6990 L60803 6989 L60828 6973 Z" class="ps04 ps14"/>
<path d="M60803 6989 L60828 6970 L60828 6973 Z" class="ps04 ps14"/>
<path d="M60803 6989 L60800 6988 L60828 6970 Z" class="ps04 ps14"/>
<path d="M60800 6988 L60828 6967 L60828 6970 Z" class="ps04 ps14"/>
<path d="M60800 6988 L60797 6986 L60828 6967 Z" class="ps04 ps14"/>
<path d="M60797 6986 L60827 6964 L60828 6967 Z" class="ps04 ps14"/>
<path d="M60797 6986 L60795 6984 L60827 6964 Z" class="ps04 ps14"/>
<path d="M60795 6984 L60826 6961 L60827 6964 Z" class="ps04 ps14"/>
<path d="M60795 6984 L60793 6982 L60826 6961 Z" class="ps04 ps14"/>
<path d="M60793 6982 L60824 6959 L60826 6961 Z" class="ps04 ps14"/>
<path d="M60793 6982 L60791 6979 L60824 6959 Z" class="ps04 ps14"/>
<path d="M60791 6979 L60822 6956 L60824 6959 Z" class="ps04 ps14"/>
<path d="M60791 6979 L60790 6977 L60822 6956 Z" class="ps04 ps14"/>
<path d="M60790 6977 L60820 6954 L60822 6956 Z" class="ps04 ps14"/>
<path d="M60790 6977 L60789 6974 L60820 6954 Z" class="ps04 ps14"/>
<path d="M60789 6974 L60817 6953 L60820 6954 Z" class="ps04 ps14"/>
<path d="M60789 6974 L60789 6971 L60817 6953 Z" class="ps04 ps14"/>
<path d="M60789 6971 L60814 6952 L60817 6953 Z" class="ps04 ps14"/>
<path d="M60789 6971 L60789 6968 L60814 6952 Z" class="ps04 ps14"/>
<path d="M60789 6968 L60811 6951 L60814 6952 Z" class="ps04 ps14"/>
<path d="M60789 6968 L60790 6965 L60811 6951 Z" class="ps04 ps14"/>
<path d="M60790 6965 L60808 6951 L60811 6951 Z" class="ps04 ps14"/>
<path d="M60790 6965 L60791 6962 L60808 6951 Z" class="ps04 ps14"/>
<path d="M60791 6962 L60805 6951 L60808 6951 Z" class="ps04 ps14"/>
<path d="M60791 6962 L60793 6959 L60805 6951 Z" class="ps04 ps14"/>
<path d="M60793 6959 L60802 6952 L60805 6951 Z" class="ps04 ps14"/>
<path d="M60793 6959 L60795 6957 L60802 6952 Z" class="ps04 ps14"/>
<path d="M60795 6957 L60800 6953 L60802 6952 Z" class="ps04 ps14"/>
<path d="M60795 6957 L60797 6955 L60800 6953 Z" class="ps04 ps14"/>
<path d="M60418 8021 L60423 8017 L60420 8019 Z" class="ps04 ps14"/>
<path d="M60418 8021 L60415 8022 L60423 8017 Z" class="ps04 ps14"/>
<path d="M60415 8022 L60425 8015 L60423 8017 Z" class="ps04 ps14"/>
<path d="M60415 8022 L60412 8023 L60425 8015 Z" class="ps04 ps14"/>
<path d="M60412 8023 L60426 8012 L60425 8015 Z" class="ps04 ps14"/>
<path d="M60412 8023 L60409 8023 L60426 8012 Z" class="ps04 ps14"/>
<path d="M60409 8023 L60427 8009 L60426 8012 Z" class="ps04 ps14"/>
<path d="M60409 8023 L60406 8023 L60427 8009 Z" class="ps04 ps14"/>
<path d="M60406 8023 L60428 8006 L60427 8009 Z" class="ps04 ps14"/>
<path d="M60406 8023 L60403 8022 L60428 8006 Z" class="ps04 ps14"/>
<path d="M60403 8022 L60428 8003 L60428 8006 Z" class="ps04 ps14"/>
<path d="M60403 8022 L60400 8021 L60428 8003 Z" class="ps04 ps14"/>
<path d="M60400 8021 L60428 8000 L60428 8003 Z" class="ps04 ps14"/>
<path d="M60400 8021 L60397 8020 L60428 8000 Z" class="ps04 ps14"/>
<path d="M60397 8020 L60427 7997 L60428 8000 Z" class="ps04 ps14"/>
<path d="M60397 8020 L60395 8018 L60427 7997 Z" class="ps04 ps14"/>
<path d="M60395 8018 L60426 7994 L60427 7997 Z" class="ps04 ps14"/>
<path d="M60395 8018 L60393 8015 L60426 7994 Z" class="ps04 ps14"/>
<path d="M60393 8015 L60424 7992 L60426 7994 Z" class="ps04 ps14"/>
<path d="M60393 8015 L60391 8013 L60424 7992 Z" class="ps04 ps14"/>
<path d="M60391 8013 L60422 7990 L60424 7992 Z" class="ps04 ps14"/>
<path d="M60391 8013 L60390 8010 L60422 7990 Z" class="ps04 ps14"/>
<path d="M60390 8010 L60420 7988 L60422 7990 Z" class="ps04 ps14"/>
<path d="M60390 8010 L60389 8007 L60420 7988 Z" class="ps04 ps14"/>
<path d="M60389 8007 L60417 7986 L60420 7988 Z" class="ps04 ps14"/>
<path d="M60389 8007 L60389 8004 L60417 7986 Z" class="ps04 ps14"/>
<path d="M60389 8004 L60414 7985 L60417 7986 Z" class="ps04 ps14"/>
<path d="M60389 8004 L60389 8001 L60414 7985 Z" class="ps04 ps14"/>
<path d="M60389 8001 L60411 7984 L60414 7985 Z" class="ps04 ps14"/>
<path d="M60389 8001 L60390 7998 L60411 7984 Z" class="ps04 ps14"/>
<path d="M60390 7998 L60408 7984 L60411 7984 Z" class="ps04 ps14"/>
<path d="M60390 7998 L60391 7995 L60408 7984 Z" class="ps04 ps14"/>
<path d="M60391 7995 L60405 7984 L60408 7984 Z" class="ps04 ps14"/>
<path d="M60391 7995 L60393 7992 L60405 7984 Z" class="ps04 ps14"/>
<path d="M60393 7992 L60402 7985 L60405 7984 Z" class="ps04 ps14"/>
<path d="M60393 7992 L60395 7990 L60402 7985 Z" class="ps04 ps14"/>
<path d="M60395 7990 L60399 7986 L60402 7985 Z" class="ps04 ps14"/>
<path d="M60395 7990 L60397 7988 L60399 7986 Z" class="ps04 ps14"/>
<path d="M60066 7551 L60071 7547 L60068 7549 Z" class="ps04 ps14"/>
<path d="M60066 7551 L60063 7552 L60071 7547 Z" class="ps04 ps14"/>
<path d="M60063 7552 L60073 7545 L60071 7547 Z" class="ps04 ps14"/>
<path d="M60063 7552 L60060 7553 L60073 7545 Z" class="ps04 ps14"/>
<path d="M60060 7553 L60074 7542 L60073 7545 Z" class="ps04 ps14"/>
<path d="M60060 7553 L60057 7553 L60074 7542 Z" class="ps04 ps14"/>
<path d="M60057 7553 L60075 7539 L60074 7542 Z" class="ps04 ps14"/>
<path d="M60057 7553 L60054 7553 L60075 7539 Z" class="ps04 ps14"/>
<path d="M60054 7553 L60076 7536 L60075 7539 Z" class="ps04 ps14"/>
<path d="M60054 7553 L60051 7552 L60076 7536 Z" class="ps04 ps14"/>
<path d="M60051 7552 L60076 7533 L60076 7536 Z" class="ps04 ps14"/>
<path d="M60051 7552 L60048 7551 L60076 7533 Z" class="ps04 ps14"/>
<path d="M60048 7551 L60076 7530 L60076 7533 Z" class="ps04 ps14"/>
<path d="M60048 7551 L60045 7550 L60076 7530 Z" class="ps04 ps14"/>
<path d="M60045 7550 L60075 7527 L60076 7530 Z" class="ps04 ps14"/>
<path d="M60045 7550 L60043 7548 L60075 7527 Z" class="ps04 ps14"/>
<path d="M60043 7548 L60074 7524 L60075 7527 Z" class="ps04 ps14"/>
<path d="M60043 7548 L60041 7545 L60074 7524 Z" class="ps04 ps14"/>
<path d="M60041 7545 L60072 7522 L60074 7524 Z" class="ps04 ps14"/>
<path d="M60041 7545 L60039 7543 L60072 7522 Z" class="ps04 ps14"/>
<path d="M60039 7543 L60070 7519 L60072 7522 Z" class="ps04 ps14"/>
<path d="M60039 7543 L60038 7540 L60070 7519 Z" class="ps04 ps14"/>
<path d="M60038 7540 L60068 7518 L60070 7519 Z" class="ps04 ps14"/>
<path d="M60038 7540 L60037 7537 L60068 7518 Z" class="ps04 ps14"/>
<path d="M60037 7537 L60065 7516 L60068 7518 Z" class="ps04 ps14"/>
<path d="M60037 7537 L60037 7534 L60065 7516 Z" class="ps04 ps14"/>
<path d="M60037 7534 L60062 7515 L60065 7516 Z" class="ps04 ps14"/>
<path d="M60037 7534 L60037 7531 L60062 7515 Z" class="ps04 ps14"/>
<path d="M60037 7531 L60059 7514 L60062 7515 Z" class="ps04 ps14"/>
<path d="M60037 7531 L60038 7528 L60059 7514 Z" class="ps04 ps14"/>
<path d="M60038 7528 L60056 7514 L60059 7514 Z" class="ps04 ps14"/>
<path d="M60038 7528 L60039 7525 L60056 7514 Z" class="ps04 ps14"/>
<path d="M60039 7525 L60053 7514 L60056 7514 Z" class="ps04 ps14"/>
<path d="M60039 7525 L60041 7522 L60053 7514 Z" class="ps04 ps14"/>
<path d="M60041 7522 L60050 7515 L60053 7514 Z" class="ps04 ps14"/>
<path d="M60041 7522 L60043 7520 L60050 7515 Z" class="ps04 ps14"/>
<path d="M60043 7520 L60047 7516 L60050 7515 Z" class="ps04 ps14"/>
<path d="M60043 7520 L60045 7518 L60047 7516 Z" class="ps04 ps14"/>
<path d="M60512 8044 L60496 8055" class="ps03 ps13"/>
<path d="M60620 8093 L60591 8114" class="ps03 ps13"/>
<path d="M60610 8080 L60582 8101" class="ps03 ps13"/>
<path d="M60605 8074 L60577 8095" class="ps03 ps13"/>
<path d="M60601 8068 L60573 8089" class="ps03 ps13"/>
<path d="M60588 8109 L60581 8114" class="ps03 ps13"/>
<path d="M60557 8133 L60554 8135" class="ps03 ps13"/>
<path d="M60516 8023 L60488 8044" class="ps03 ps13"/>
<path d="M60521 8029 L60493 8051" class="ps03 ps13"/>
<path d="M60526 8036 L60497 8057" class="ps03 ps13"/>
<path d="M60530 8042 L60502 8063" class="ps03 ps13"/>
<path d="M60535 8048 L60507 8069" class="ps03 ps13"/>
<path d="M60540 8055 L60511 8076" class="ps03 ps13"/>
<path d="M60544 8061 L60516 8082" class="ps03 ps13"/>
<path d="M60549 8067 L60521 8088" class="ps03 ps13"/>
<path d="M60554 8073 L60526 8094" class="ps03 ps13"/>
<path d="M60558 8080 L60530 8101" class="ps03 ps13"/>
<path d="M60563 8086 L60535 8107" class="ps03 ps13"/>
<path d="M60568 8092 L60540 8113" class="ps03 ps13"/>
<path d="M60573 8098 L60544 8120" class="ps03 ps13"/>
<path d="M60577 8105 L60549 8126" class="ps03 ps13"/>
<path d="M60662 8110 L60579 8172" class="ps03 ps13"/>
<path d="M60658 8109 L60579 8169" class="ps03 ps13"/>
<path d="M60634 8072 L60662 8110" class="ps03 ps13"/>
<path d="M60643 8089 L60658 8109" class="ps03 ps13"/>
<path d="M60474 7993 L60456 8008" class="ps03 ps13"/>
<path d="M60488 8044 L60554 8132" class="ps03 ps13"/>
<path d="M60490 8043 L60557 8133" class="ps03 ps13"/>
<path d="M60516 8023 L60582 8111" class="ps03 ps13"/>
<path d="M60568 8082 L60591 8114" class="ps03 ps13"/>
<path d="M60570 8081 L60593 8112" class="ps03 ps13"/>
<path d="M60601 8068 L60620 8093" class="ps03 ps13"/>
<path d="M60599 8069 L60618 8094" class="ps03 ps13"/>
<path d="M60514 8025 L60581 8114" class="ps03 ps13"/>
<path d="M61675 8415 L61738 8466" class="ps03 ps13"/>
<path d="M61199 8772 L61230 8846" class="ps03 ps13"/>
<path d="M61183 8783 L61230 8846" class="ps03 ps13"/>
<path d="M61691 8403 L61738 8466" class="ps03 ps13"/>
<path d="M61230 8846 L61738 8466" class="ps03 ps13"/>
<path d="M60566 8181 L61100 8894" class="ps03 ps13"/>
<path d="M61100 8894 L61207 8815" class="ps03 ps13"/>
<path d="M61714 8434 L61821 8355" class="ps03 ps13"/>
<path d="M61821 8355 L61766 8347" class="ps03 ps13"/>
<path d="M61108 8840 L61100 8894" class="ps03 ps13"/>
<path d="M61427 7828 L61821 8355" class="ps03 ps13"/>
<path d="M60551 8134 L60579 8172" class="ps03 ps13"/>
<path d="M60554 8135 L60579 8169" class="ps03 ps13"/>
<path d="M60456 8008 L60493 8058" class="ps03 ps13"/>
<path d="M60496 8055 L60493 8058" class="ps03 ps13"/>
<path d="M61142 7440.9 C61142 7430.1 61150 7421.3 61161 7421.3 C61172 7421.3 61181 7430.1 61181 7440.9 C61181 7451.7 61172 7460.5 61161 7460.5 C61150 7460.5 61142 7451.7 61142 7440.9" class="ps03 ps13"/>
<path d="M60389 8004.1 C60389 7993.3 60398 7984.5 60409 7984.5 C60420 7984.5 60429 7993.3 60429 8004.1 C60429 8014.9 60420 8023.6 60409 8023.6 C60398 8023.6 60389 8014.9 60389 8004.1" class="ps03 ps13"/>
<path d="M60557 8087 L60580 8077 L60586 8083 L60582 8067 L60588 8073 L60611 8063" class="ps03 ps13"/>
<path d="M61700 8357 L61419 7981" class="ps05 ps15"/>
<path d="M61383 7934 L61383 7934" class="ps05 ps15"/>
<path d="M61348 7887 L61067 7511" class="ps05 ps15"/>
<path d="M61031 7464 L61031 7464" class="ps05 ps15"/>
<path d="M60996 7417 L60715 7041" class="ps05 ps15"/>
<path d="M60715 7041 L60480 7217" class="ps05 ps15"/>
<path d="M60433 7252 L60433 7252" class="ps05 ps15"/>
<path d="M60386 7287 L60151 7463" class="ps05 ps15"/>
<path d="M60151 7463 L60432 7839" class="ps05 ps15"/>
<path d="M60467 7886 L60467 7886" class="ps05 ps15"/>
<path d="M60503 7933 L60784 8309" class="ps05 ps15"/>
<path d="M60819 8356 L60819 8356" class="ps05 ps15"/>
<path d="M60855 8403 L61136 8779" class="ps05 ps15"/>
<path d="M61136 8779 L61371 8603" class="ps05 ps15"/>
<path d="M61418 8568 L61418 8568" class="ps05 ps15"/>
<path d="M61465 8533 L61700 8357" class="ps05 ps15"/>
<path d="M61348 7887 L60784 8309" class="ps06 ps13"/>
<path d="M61067 7511 L60503 7933" class="ps06 ps13"/>
<path d="M60951 7768 L60782 7895" class="ps06 ps13"/>
<path d="M61700 8357 L61856 8241" class="ps02 ps13"/>
<path d="M61844 8205.9 C61844 8173.5 61871 8147.2 61903 8147.2 C61935 8147.2 61962 8173.5 61962 8205.9 C61962 8238.3 61935 8264.6 61903 8264.6 C61871 8264.6 61844 8238.3 61844 8205.9" class="ps02 ps13"/>
<path d="M61915 8168 L61871 8201 L61869 8202 L61867 8202 L61865 8201 L61864 8201 L61860 8197 L61858 8195 L61855 8190 L61853 8191 L61881 8229 L61883 8228 L61879 8223 L61878 8220 L61875 8216 L61875 8215 L61875 8213 L61876 8211 L61877 8210 L61912 8183 L61913 8183 L61914 8183 L61915 8183 L61916 8183 L61918 8185 L61919 8186 L61926 8196 L61927 8194 L61924 8190 L61922 8187 L61918 8181 L61918 8179 L61917 8176 L61916 8172 L61917 8170 L61915 8168" class="ps07 ps13"/>
<path d="M60715 7041 L60870 6924" class="ps02 ps13"/>
<path d="M60859 6889.7 C60859 6857.3 60885 6831 60918 6831 C60950 6831 60976 6857.3 60976 6889.7 C60976 6922.2 60950 6948.5 60918 6948.5 C60885 6948.5 60859 6922.2 60859 6889.7" class="ps02 ps13"/>
<path d="M60904 6888 L60898 6880 L60896 6882" class="ps07 ps13"/>
<path d="M60904 6888 L60896 6882 L60902 6890" class="ps07 ps13"/>
<path d="M60885 6895 L60883 6893 L60882 6894" class="ps07 ps13"/>
<path d="M60882 6894 L60886 6896 L60885 6895" class="ps07 ps13"/>
<path d="M60882 6894 L60896 6913 L60888 6898" class="ps07 ps13"/>
<path d="M60882 6894 L60888 6898 L60886 6896" class="ps07 ps13"/>
<path d="M60896 6913 L60889 6898 L60888 6898" class="ps07 ps13"/>
<path d="M60896 6913 L60889 6898 L60889 6898" class="ps07 ps13"/>
<path d="M60895 6902 L60896 6901 L60891 6898" class="ps07 ps13"/>
<path d="M60891 6898 L60894 6904 L60895 6902" class="ps07 ps13"/>
<path d="M60891 6898 L60894 6905 L60894 6904" class="ps07 ps13"/>
<path d="M60891 6898 L60894 6906 L60894 6905" class="ps07 ps13"/>
<path d="M60894 6906 L60891 6898 L60889 6898" class="ps07 ps13"/>
<path d="M60889 6898 L60896 6913 L60894 6906" class="ps07 ps13"/>
<path d="M60896 6913 L60894 6908 L60894 6906" class="ps07 ps13"/>
<path d="M60896 6913 L60895 6909 L60894 6908" class="ps07 ps13"/>
<path d="M60896 6913 L60898 6912 L60895 6909" class="ps07 ps13"/>
<path d="M60896 6901 L60892 6897 L60891 6898" class="ps07 ps13"/>
<path d="M60896 6901 L60905 6894 L60902 6890" class="ps07 ps13"/>
<path d="M60896 6901 L60902 6890 L60892 6897" class="ps07 ps13"/>
<path d="M60920 6910 L60907 6893 L60905 6894" class="ps07 ps13"/>
<path d="M60920 6910 L60905 6894 L60920 6914" class="ps07 ps13"/>
<path d="M60920 6914 L60922 6913 L60940 6866" class="ps07 ps13"/>
<path d="M60920 6914 L60940 6866 L60934 6873" class="ps07 ps13"/>
<path d="M60920 6914 L60934 6873 L60920 6910" class="ps07 ps13"/>
<path d="M60934 6873 L60934 6873 L60940 6866" class="ps07 ps13"/>
<path d="M60940 6866 L60937 6863 L60904 6888" class="ps07 ps13"/>
<path d="M60940 6866 L60904 6888 L60907 6893" class="ps07 ps13"/>
<path d="M60940 6866 L60907 6893 L60934 6873" class="ps07 ps13"/>
<path d="M60904 6888 L60902 6890 L60905 6894" class="ps07 ps13"/>
<path d="M60904 6888 L60905 6894 L60907 6893" class="ps07 ps13"/>
<path d="M61841 8623.8 C61841 8591.3 61868 8565.1 61900 8565.1 C61933 8565.1 61959 8591.3 61959 8623.8 C61959 8656.2 61933 8682.5 61900 8682.5 C61868 8682.5 61841 8656.2 61841 8623.8" class="ps02 ps13"/>
<path d="M61874 8637 L61875 8635 L61871 8633" class="ps07 ps13"/>
<path d="M61874 8637 L61871 8633 L61870 8636" class="ps07 ps13"/>
<path d="M61870 8636 L61872 8642 L61874 8645" class="ps07 ps13"/>
<path d="M61870 8636 L61874 8645 L61875 8642" class="ps07 ps13"/>
<path d="M61870 8636 L61875 8642 L61874 8637" class="ps07 ps13"/>
<path d="M61874 8645 L61876 8644 L61875 8642" class="ps07 ps13"/>
<path d="M61879 8628 L61882 8626 L61878 8622" class="ps07 ps13"/>
<path d="M61878 8622 L61875 8624 L61871 8630" class="ps07 ps13"/>
<path d="M61878 8622 L61871 8630 L61871 8633" class="ps07 ps13"/>
<path d="M61878 8622 L61871 8633 L61876 8633" class="ps07 ps13"/>
<path d="M61878 8622 L61876 8633 L61879 8628" class="ps07 ps13"/>
<path d="M61871 8633 L61875 8635 L61876 8633" class="ps07 ps13"/>
<path d="M61886 8623 L61892 8621 L61889 8617" class="ps07 ps13"/>
<path d="M61886 8623 L61889 8617 L61886 8618" class="ps07 ps13"/>
<path d="M61886 8623 L61886 8618 L61881 8620" class="ps07 ps13"/>
<path d="M61886 8623 L61881 8620 L61878 8622" class="ps07 ps13"/>
<path d="M61878 8622 L61882 8626 L61886 8623" class="ps07 ps13"/>
<path d="M61897 8621 L61901 8623 L61901 8620" class="ps07 ps13"/>
<path d="M61897 8621 L61901 8620 L61898 8618" class="ps07 ps13"/>
<path d="M61898 8618 L61894 8621 L61897 8621" class="ps07 ps13"/>
<path d="M61898 8618 L61892 8616 L61889 8617" class="ps07 ps13"/>
<path d="M61898 8618 L61889 8617 L61892 8621" class="ps07 ps13"/>
<path d="M61898 8618 L61892 8621 L61894 8621" class="ps07 ps13"/>
<path d="M61880 8648 L61876 8644 L61874 8645" class="ps07 ps13"/>
<path d="M61874 8645 L61880 8649 L61880 8648" class="ps07 ps13"/>
<path d="M61880 8649 L61874 8645 L61885 8660" class="ps07 ps13"/>
<path d="M61885 8660 L61881 8649 L61880 8649" class="ps07 ps13"/>
<path d="M61885 8660 L61881 8649 L61881 8649" class="ps07 ps13"/>
<path d="M61885 8660 L61882 8649 L61881 8649" class="ps07 ps13"/>
<path d="M61886 8653 L61887 8652 L61883 8649" class="ps07 ps13"/>
<path d="M61883 8649 L61885 8654 L61886 8653" class="ps07 ps13"/>
<path d="M61883 8649 L61885 8654 L61885 8654" class="ps07 ps13"/>
<path d="M61883 8649 L61885 8655 L61885 8654" class="ps07 ps13"/>
<path d="M61883 8649 L61882 8649 L61885 8660" class="ps07 ps13"/>
<path d="M61883 8649 L61885 8660 L61885 8655" class="ps07 ps13"/>
<path d="M61885 8660 L61885 8656 L61885 8655" class="ps07 ps13"/>
<path d="M61885 8660 L61886 8656 L61885 8656" class="ps07 ps13"/>
<path d="M61885 8660 L61887 8658 L61886 8656" class="ps07 ps13"/>
<path d="M61887 8652 L61884 8649 L61883 8649" class="ps07 ps13"/>
<path d="M61887 8652 L61931 8619 L61907 8631" class="ps07 ps13"/>
<path d="M61887 8652 L61907 8631 L61884 8649" class="ps07 ps13"/>
<path d="M61935 8619 L61936 8621 L61938 8619" class="ps07 ps13"/>
<path d="M61938 8619 L61935 8619 L61935 8619" class="ps07 ps13"/>
<path d="M61938 8619 L61928 8605 L61934 8618" class="ps07 ps13"/>
<path d="M61938 8619 L61934 8618 L61935 8619" class="ps07 ps13"/>
<path d="M61928 8605 L61933 8618 L61934 8618" class="ps07 ps13"/>
<path d="M61928 8605 L61933 8618 L61933 8618" class="ps07 ps13"/>
<path d="M61913 8605 L61918 8603 L61919 8599" class="ps07 ps13"/>
<path d="M61913 8605 L61919 8599 L61916 8599" class="ps07 ps13"/>
<path d="M61913 8605 L61916 8599 L61910 8601" class="ps07 ps13"/>
<path d="M61913 8605 L61910 8601 L61907 8603" class="ps07 ps13"/>
<path d="M61907 8603 L61910 8607 L61913 8605" class="ps07 ps13"/>
<path d="M61929 8615 L61928 8615 L61932 8618" class="ps07 ps13"/>
<path d="M61932 8618 L61933 8618 L61930 8614" class="ps07 ps13"/>
<path d="M61932 8618 L61930 8614 L61929 8615" class="ps07 ps13"/>
<path d="M61933 8618 L61930 8613 L61930 8614" class="ps07 ps13"/>
<path d="M61933 8618 L61930 8613 L61930 8613" class="ps07 ps13"/>
<path d="M61933 8618 L61930 8612 L61930 8613" class="ps07 ps13"/>
<path d="M61933 8618 L61928 8605 L61930 8612" class="ps07 ps13"/>
<path d="M61928 8605 L61929 8611 L61930 8612" class="ps07 ps13"/>
<path d="M61928 8605 L61927 8608 L61929 8611" class="ps07 ps13"/>
<path d="M61928 8605 L61926 8606 L61927 8608" class="ps07 ps13"/>
<path d="M61928 8605 L61926 8602 L61921 8599" class="ps07 ps13"/>
<path d="M61928 8605 L61921 8599 L61922 8604" class="ps07 ps13"/>
<path d="M61928 8605 L61922 8604 L61926 8606" class="ps07 ps13"/>
<path d="M61921 8599 L61920 8604 L61922 8604" class="ps07 ps13"/>
<path d="M61921 8599 L61919 8599 L61918 8603" class="ps07 ps13"/>
<path d="M61921 8599 L61918 8603 L61920 8604" class="ps07 ps13"/>
<path d="M61909 8630 L61904 8623 L61903 8625" class="ps07 ps13"/>
<path d="M61909 8630 L61903 8625 L61907 8631" class="ps07 ps13"/>
<path d="M61909 8630 L61907 8631 L61931 8619" class="ps07 ps13"/>
<path d="M61931 8619 L61932 8618 L61928 8615" class="ps07 ps13"/>
<path d="M61931 8619 L61928 8615 L61909 8630" class="ps07 ps13"/>
<path d="M61903 8622 L61903 8618 L61901 8620" class="ps07 ps13"/>
<path d="M61903 8622 L61901 8620 L61901 8623" class="ps07 ps13"/>
<path d="M61901 8623 L61903 8625 L61904 8623" class="ps07 ps13"/>
<path d="M61901 8623 L61904 8623 L61903 8622" class="ps07 ps13"/>
<path d="M61903 8616 L61904 8614 L61901 8610" class="ps07 ps13"/>
<path d="M61903 8616 L61901 8610 L61900 8612" class="ps07 ps13"/>
<path d="M61903 8616 L61900 8612 L61900 8617" class="ps07 ps13"/>
<path d="M61900 8617 L61901 8620 L61903 8618" class="ps07 ps13"/>
<path d="M61900 8617 L61903 8618 L61903 8616" class="ps07 ps13"/>
<path d="M61907 8609 L61910 8607 L61907 8603" class="ps07 ps13"/>
<path d="M61907 8603 L61905 8605 L61902 8608" class="ps07 ps13"/>
<path d="M61907 8603 L61902 8608 L61901 8610" class="ps07 ps13"/>
<path d="M61907 8603 L61901 8610 L61904 8614" class="ps07 ps13"/>
<path d="M61907 8603 L61904 8614 L61907 8609" class="ps07 ps13"/>
<path d="M61700 8357 L61864 8576" class="ps02 ps13"/>
<path d="M61277 9046.2 C61277 9013.7 61304 8987.4 61336 8987.4 C61369 8987.4 61395 9013.7 61395 9046.2 C61395 9078.6 61369 9104.9 61336 9104.9 C61304 9104.9 61277 9078.6 61277 9046.2" class="ps02 ps13"/>
<path d="M61304 9055 L61303 9054 L61303 9054" class="ps07 ps13"/>
<path d="M61304 9055 L61303 9054 L61301 9055" class="ps07 ps13"/>
<path d="M61301 9055 L61305 9055 L61304 9055" class="ps07 ps13"/>
<path d="M61301 9055 L61305 9055 L61305 9055" class="ps07 ps13"/>
<path d="M61301 9055 L61306 9056 L61305 9055" class="ps07 ps13"/>
<path d="M61309 9060 L61310 9059 L61308 9055" class="ps07 ps13"/>
<path d="M61309 9060 L61308 9055 L61306 9056" class="ps07 ps13"/>
<path d="M61306 9056 L61309 9060 L61309 9060" class="ps07 ps13"/>
<path d="M61306 9056 L61309 9061 L61309 9060" class="ps07 ps13"/>
<path d="M61306 9056 L61301 9055 L61308 9065" class="ps07 ps13"/>
<path d="M61306 9056 L61308 9065 L61309 9062" class="ps07 ps13"/>
<path d="M61306 9056 L61309 9062 L61309 9061" class="ps07 ps13"/>
<path d="M61308 9065 L61310 9063 L61309 9062" class="ps07 ps13"/>
<path d="M61308 9065 L61310 9064 L61310 9063" class="ps07 ps13"/>
<path d="M61310 9059 L61311 9059 L61309 9055" class="ps07 ps13"/>
<path d="M61310 9059 L61309 9055 L61308 9055" class="ps07 ps13"/>
<path d="M61308 9055 L61310 9059 L61310 9059" class="ps07 ps13"/>
<path d="M61318 9073 L61317 9073 L61315 9074" class="ps07 ps13"/>
<path d="M61315 9074 L61318 9074 L61318 9073" class="ps07 ps13"/>
<path d="M61315 9074 L61321 9083 L61320 9075" class="ps07 ps13"/>
<path d="M61315 9074 L61320 9075 L61318 9074" class="ps07 ps13"/>
<path d="M61321 9083 L61320 9074 L61320 9075" class="ps07 ps13"/>
<path d="M61323 9078 L61324 9076 L61321 9074" class="ps07 ps13"/>
<path d="M61323 9078 L61321 9074 L61320 9074" class="ps07 ps13"/>
<path d="M61320 9074 L61322 9078 L61323 9078" class="ps07 ps13"/>
<path d="M61320 9074 L61322 9079 L61322 9078" class="ps07 ps13"/>
<path d="M61320 9074 L61321 9083 L61322 9079" class="ps07 ps13"/>
<path d="M61321 9083 L61323 9080 L61322 9079" class="ps07 ps13"/>
<path d="M61321 9083 L61323 9080 L61323 9080" class="ps07 ps13"/>
<path d="M61321 9083 L61323 9081 L61323 9080" class="ps07 ps13"/>
<path d="M61324 9076 L61324 9075 L61322 9073" class="ps07 ps13"/>
<path d="M61324 9076 L61322 9073 L61321 9074" class="ps07 ps13"/>
<path d="M61324 9075 L61323 9073 L61322 9073" class="ps07 ps13"/>
<path d="M61324 9075 L61324 9073 L61323 9073" class="ps07 ps13"/>
<path d="M61324 9075 L61325 9072 L61324 9073" class="ps07 ps13"/>
<path d="M61324 9075 L61325 9071 L61325 9072" class="ps07 ps13"/>
<path d="M61324 9075 L61336 9060 L61325 9071" class="ps07 ps13"/>
<path d="M61360 9034 L61366 9031 L61365 9026" class="ps07 ps13"/>
<path d="M61365 9026 L61330 9049 L61360 9034" class="ps07 ps13"/>
<path d="M61365 9026 L61328 9050 L61330 9049" class="ps07 ps13"/>
<path d="M61336 9060 L61324 9075 L61337 9058" class="ps07 ps13"/>
<path d="M61337 9058 L61330 9049 L61328 9050" class="ps07 ps13"/>
<path d="M61337 9058 L61328 9050 L61336 9060" class="ps07 ps13"/>
<path d="M61324 9075 L61366 9031 L61360 9034" class="ps07 ps13"/>
<path d="M61324 9075 L61360 9034 L61337 9058" class="ps07 ps13"/>
<path d="M61366 9031 L61360 9034 L61360 9034" class="ps07 ps13"/>
<path d="M61365 9026 L61309 9055 L61328 9050" class="ps07 ps13"/>
<path d="M61309 9055 L61313 9058 L61328 9050" class="ps07 ps13"/>
<path d="M61309 9055 L61312 9058 L61313 9058" class="ps07 ps13"/>
<path d="M61309 9055 L61311 9059 L61312 9058" class="ps07 ps13"/>
<path d="M61136 8779 L61300 8999" class="ps02 ps13"/>
<path d="M60867 7832 L60607 7485" class="ps06 ps13"/>
<path d="M60572 7438 L60572 7438" class="ps06 ps13"/>
<path d="M60536 7391 L60277 7044" class="ps06 ps13"/>
<path d="M60697 7604 L60521 7369" class="ps06 ps13"/>
<path d="M60723 7401 L60494 7572" class="ps06 ps13"/>
<path d="M60482 7487.5 C60482 7417.2 60539 7360.2 60609 7360.2 C60679 7360.2 60736 7417.2 60736 7487.5 C60736 7557.7 60679 7614.7 60609 7614.7 C60539 7614.7 60482 7557.7 60482 7487.5" class="ps06 ps13"/>
<path d="M61364 7924 L61380 7912 L61333 7850 L61317 7861 Z" class="ps04 ps14"/>
<path d="M61385 7871 L61374 7856 L61311 7902 L61323 7918 Z" class="ps04 ps14"/>
<path d="M61787 7558 L61942 7442" class="ps02 ps13"/>
<path d="M61931 7407.3 C61931 7374.9 61957 7348.6 61990 7348.6 C62022 7348.6 62049 7374.9 62049 7407.3 C62049 7439.8 62022 7466.1 61990 7466.1 C61957 7466.1 61931 7439.8 61931 7407.3" class="ps02 ps13"/>
<path d="M61994 7386 L61996 7384 L62001 7382 L62004 7383 L62006 7383 L62011 7386 L62013 7389 L62014 7391 L62016 7395 L62016 7397 L62016 7399 L62015 7402 L62013 7403 L62012 7404 L62010 7405 L62009 7404 L62008 7404 L62007 7405 L62006 7405 L62005 7406 L62005 7407 L62004 7408 L62004 7408 L62005 7410 L62006 7411 L62006 7412 L62008 7413 L62009 7413 L62010 7413 L62012 7413 L62013 7412 L62016 7409 L62019 7403 L62019 7400 L62019 7396 L62016 7389 L62014 7387 L62011 7383 L62005 7378 L62002 7377 L61998 7377 L61993 7378 L61990 7380 L61988 7381 L61985 7385 L61984 7387 L61983 7389 L61982 7395 L61982 7398 L61982 7406 L61980 7418 L61980 7423 L61979 7427 L61978 7433 L61978 7434 L61963 7414 L61962 7413 L61961 7410 L61961 7408 L61961 7406 L61963 7403 L61965 7401 L61964 7399 L61953 7410 L61976 7441 L61980 7438 L61980 7436 L61982 7431 L61982 7428 L61983 7424 L61984 7416 L61984 7410 L61985 7406 L61986 7398 L61987 7395 L61989 7392 L61992 7388 L61994 7386 L61994 7386" class="ps07 ps13"/>
<path d="M61505 7182 L61661 7066" class="ps02 ps13"/>
<path d="M61649 7031.3 C61649 6998.8 61676 6972.6 61708 6972.6 C61741 6972.6 61767 6998.8 61767 7031.3 C61767 7063.7 61741 7090 61708 7090 C61676 7090 61649 7063.7 61649 7031.3" class="ps02 ps13"/>
<path d="M61683 7022 L61680 7024 L61677 7030 L61677 7034 L61676 7038 L61679 7046 L61682 7050 L61685 7053 L61690 7057 L61693 7058 L61696 7059 L61701 7059 L61703 7058 L61704 7057 L61705 7055 L61705 7054 L61705 7053 L61705 7051 L61704 7050 L61704 7049 L61702 7048 L61701 7049 L61700 7049 L61699 7049 L61698 7049 L61697 7050 L61696 7051 L61696 7052 L61696 7053 L61695 7054 L61695 7054 L61694 7055 L61691 7054 L61690 7054 L61688 7053 L61686 7050 L61685 7049 L61682 7046 L61680 7040 L61681 7038 L61681 7035 L61685 7030 L61688 7028 L61691 7026 L61696 7024 L61699 7024 L61702 7025 L61708 7029 L61711 7034 L61713 7032 L61711 7029 L61708 7023 L61709 7020 L61709 7018 L61711 7013 L61714 7011 L61716 7010 L61720 7008 L61723 7008 L61725 7009 L61730 7011 L61732 7014 L61733 7015 L61734 7018 L61735 7020 L61735 7021 L61734 7024 L61733 7025 L61732 7026 L61730 7027 L61730 7026 L61729 7026 L61728 7027 L61728 7027 L61727 7027 L61726 7029 L61726 7029 L61726 7030 L61726 7031 L61727 7032 L61727 7033 L61729 7034 L61730 7034 L61731 7034 L61733 7034 L61734 7033 L61736 7031 L61738 7026 L61738 7023 L61737 7020 L61735 7014 L61733 7011 L61730 7008 L61725 7004 L61721 7003 L61718 7003 L61713 7003 L61711 7005 L61708 7007 L61706 7011 L61705 7013 L61704 7015 L61705 7021 L61706 7024 L61702 7022 L61696 7019 L61693 7019 L61690 7019 L61685 7020 L61683 7022 L61683 7022" class="ps07 ps13"/>
<path d="M61427 7828 L61787 7558" class="ps03 ps13"/>
<path d="M61787 7558 L61505 7182" class="ps03 ps13"/>
<path d="M61505 7182 L61067 7511" class="ps03 ps13"/>
<path d="M61716 8394 L61732 8382 L61685 8320 L61669 8331 Z" class="ps04 ps14"/>
<path d="M61737 8341 L61726 8326 L61663 8373 L61675 8388 Z" class="ps04 ps14"/>
<path d="M61152 8816 L61167 8805 L61121 8742 L61105 8754 Z" class="ps04 ps14"/>
<path d="M61173 8764 L61162 8748 L61099 8795 L61111 8811 Z" class="ps04 ps14"/>
<path d="M60800 8346 L60815 8335 L60769 8272 L60753 8284 Z" class="ps04 ps14"/>
<path d="M60821 8294 L60810 8278 L60747 8325 L60759 8341 Z" class="ps04 ps14"/>
<path d="M60518 7970 L60534 7959 L60487 7896 L60471 7908 Z" class="ps04 ps14"/>
<path d="M60540 7918 L60528 7902 L60465 7949 L60477 7964 Z" class="ps04 ps14"/>
<path d="M61082 7548 L61098 7536 L61051 7474 L61035 7485 Z" class="ps04 ps14"/>
<path d="M61104 7495 L61092 7479 L61029 7526 L61041 7542 Z" class="ps04 ps14"/>
<path d="M60730 7078 L60746 7066 L60699 7004 L60683 7015 Z" class="ps04 ps14"/>
<path d="M60752 7025 L60740 7009 L60677 7056 L60689 7072 Z" class="ps04 ps14"/>
<path d="M60166 7500 L60182 7489 L60135 7426 L60119 7438 Z" class="ps04 ps14"/>
<path d="M60188 7447 L60176 7432 L60113 7479 L60125 7494 Z" class="ps04 ps14"/>
<path d="M33950 27474 L32945 28695 L33125 29417 L34369 29785 L35602 29207 L37094 29099 L37615 29345 L38651 28740 L39438 28283 L39966 27488 L40433 26908 L41324 26484 L41790 26546 L41958 26387 L41872 26131 L42265 25341 L42564 24946 L41686 24407 L41090 23661 L41008 22974 L41156 22669 L40418 21953 L39889 21234 L39561 20474 L39483 19808 L39757 19573 L40038 18646 L40086 18343 L39601 17851 L38681 17362 L38259 17142 L37992 16711 L37643 15933 L37630 14992 L37408 13936 L37906 13319 L38245 12503 L38436 11832 L38847 11539 L40422 11274 L40871 9738 L40305 8538 L39267 8456 L38551 9715 L37788 10967 L37153 11533 L35888 12084 L34797 12260 L34797 13310 L35013 14188 L35347 15121 L34923 16468 L34836 17738 L34929 19229 L35398 20175 L35591 20829 L35734 21399 L36003 22309 L36156 23272 L35473 23472 L35015 23759 L34151 25509 L32123 26620 L32514 27129 L33767 26699 L34399 27209 L33950 27474" class="ps02 ps11"/>
<path d="M47308 20987 L45903 20987 L45081 22588 L47257 25101 L47704 25642 L48311 24979 L48918 24979 L48370 23019 L47822 21766 L47308 20987" class="ps02 ps11"/>
<path d="M50363 28385 L46854 29007 L42654 29752 L42230 28676 L43323 28339 L43977 26738 L44243 23035 L42291 21159 L42132 19725 L42213 18468 L44382 20252 L44865 20875 L44382 22553 L45815 24114 L47767 26610 L48637 26159 L48637 25642 L48954 25568 L49485 26952 L51114 27809 L50922 28302 L50363 28385" class="ps02 ps11"/>
<path d="M24003 34798 L23946 35590 L25127 36863 L26359 37725 L27174 37855 L28105 37486 L29508 37850 L30798 38245 L30964 37921 L30515 36697 L30727 35940 L30758 35672 L29485 35448 L27849 35214 L26877 34685 L26428 35350 L25624 35574 L24254 34685 L24003 34798" class="ps02 ps11"/>
<path d="M26759 34137 L25898 35155 L24567 34646 L23831 34049 L23122 32800 L22272 32077 L22375 31573 L22883 31573 L23666 31984 L24684 32664 L25485 33043 L26199 33720 L26759 34137" class="ps02 ps11"/>
<path d="M30713 32923 L30006 33500 L28364 33902 L27190 33902 L26562 33183 L25702 33183 L25232 32375 L24058 31945 L23001 31083 L22100 31083 L21177 29253 L21865 28774 L22531 29713 L23471 29713 L24097 29087 L25545 29087 L26191 29524 L27072 29524 L27386 30065 L27386 31083 L27934 31677 L28795 31677 L30713 32923" class="ps02 ps11"/>
<path d="M22693 18913 L22178 16505 L20907 16034 L20121 13888 L19161 14455 L19161 16285 L19355 17415 L19238 18468 L18485 19392 L18054 19907 L18538 20396 L18795 21100 L18104 22434 L18104 24036 L16815 25289 L18657 26756 L20417 27090 L21946 28042 L22805 29026 L23784 28617 L25232 28617 L26955 28617 L27542 27951 L25739 25674 L23940 24898 L22577 23421 L21630 22243 L20830 19819 L22693 18913" class="ps02 ps11"/>
<path d="M17380 24746 L17883 23527 L17917 21950 L18577 20905 L18029 20239 L17127 19744 L15814 20533 L14701 19691 L14316 20204 L15318 21273 L16140 22682 L16613 24380 L17380 24746" class="ps02 ps11"/>
<path d="M66191 24353 L54816 35852 L55605 37363 L59945 35720 L62312 32632 L64468 31814 L65858 30687 L65811 28855 L66034 27445 L66296 26296 L66272 24918 L66191 24353" class="ps02 ps16"/>
<path d="M61994 7398 L62150 7280 L62307 7202 L62424 7241 L62542 7320 L62581 7398 L62620 7555 L62620 7711 L62581 7946 L62542 8142 L62463 8338 L62307 8494 L62150 8651 L61954 8925 L61759 9160 L61563 9395 L61367 9747 L61132 10138 L60937 10569 L60584 11195 L60310 11744 L60075 12370 L59762 12840" class="ps06 ps13"/>
<path d="M61680 7006 L61915 6850 L62150 6811 L62659 6732 L62816 6811 L62972 7046 L63090 7476 L63090 7672 L63051 7985 L63012 8298 L62855 8651 L62698 9003 L62424 9316 L62229 9669 L61994 10060 L61798 10412 L61563 10882 L61367 11352 L61171 11744 L60897 12213 L60663 12644 L60428 13035" class="ps06 ps13"/>
<path d="M67983 5597 L67749 5480 L67592 5362 L67279 5323 L66692 5323 L66418 5519 L65987 5871 L65595 6223 L65321 6537 L64891 6850 L64577 7163 L64186 7437 L63912 7789 L63560 8024 L63246 8416 L63051 8651 L62855 8846 L62503 9238 L62033 9590 L61680 9982 L61367 10256 L61132 10686 L60741 11195 L60584 11469 L60467 11626 L60389 11822 L60232 12135 L60075 12448 L59919 12644 L59801 12840" class="ps06 ps13"/>
<path d="M67592 5949 L67435 5832 L67201 5793 L66848 5715 L66692 5832 L66457 5989 L66261 6184 L66065 6380 L65752 6693 L65595 6928 L64147 8063 L61915 10217 L61485 11078 L61054 11900 L60428 12996" class="ps06 ps13"/>
<path d="M60741 13287 L60199 13006" class="ps02 ps17"/>
<path d="M59979 12891 L59979 12891" class="ps02 ps17"/>
<path d="M59758 12776 L59317 12547" class="ps02 ps17"/>
<path d="M59096 12432 L59096 12432" class="ps02 ps17"/>
<path d="M58876 12318 L58334 12036" class="ps02 ps17"/>
<path d="M58334 12036 L58066 11448" class="ps02 ps17"/>
<path d="M57962 11222 L57962 11222" class="ps02 ps17"/>
<path d="M57859 10996 L57590 10408" class="ps02 ps17"/>
<path d="M57590 10408 L57720 9762" class="ps02 ps17"/>
<path d="M57769 9518 L57769 9518" class="ps02 ps17"/>
<path d="M57818 9274 L57948 8628" class="ps02 ps17"/>
<path d="M57948 8628 L58268 8271" class="ps02 ps17"/>
<path d="M58433 8085 L58433 8085" class="ps02 ps17"/>
<path d="M58599 7900 L58930 7529" class="ps02 ps17"/>
<path d="M59096 7344 L59096 7344" class="ps02 ps17"/>
<path d="M59262 7159 L59593 6788" class="ps02 ps17"/>
<path d="M59759 6603 L59759 6603" class="ps02 ps17"/>
<path d="M59924 6417 L60256 6047" class="ps02 ps17"/>
<path d="M60422 5861 L60422 5861" class="ps02 ps17"/>
<path d="M60587 5676 L60919 5305" class="ps02 ps17"/>
<path d="M61084 5120 L61084 5120" class="ps02 ps17"/>
<path d="M61250 4935 L61581 4564" class="ps02 ps17"/>
<path d="M61747 4379 L61747 4379" class="ps02 ps17"/>
<path d="M61913 4193 L62244 3823" class="ps02 ps17"/>
<path d="M62410 3637 L62410 3637" class="ps02 ps17"/>
<path d="M62576 3452 L62907 3081" class="ps02 ps17"/>
<path d="M63073 2896 L63073 2896" class="ps02 ps17"/>
<path d="M63238 2711 L63558 2353" class="ps02 ps17"/>
<path d="M63558 2353 L64205 2931" class="ps02 ps17"/>
<path d="M64205 2931 L64459 2888" class="ps02 ps17"/>
<path d="M64704 2845 L64704 2845" class="ps02 ps17"/>
<path d="M64949 2803 L65439 2719" class="ps02 ps17"/>
<path d="M65684 2676 L65684 2676" class="ps02 ps17"/>
<path d="M65928 2634 L66418 2549" class="ps02 ps17"/>
<path d="M66663 2507 L66663 2507" class="ps02 ps17"/>
<path d="M66908 2465 L67162 2421" class="ps02 ps17"/>
<path d="M67162 2421 L67331 2740" class="ps02 ps17"/>
<path d="M67447 2960 L67447 2960" class="ps02 ps17"/>
<path d="M67563 3180 L67731 3499" class="ps02 ps17"/>
<path d="M67731 3499 L67980 3397" class="ps02 ps17"/>
<path d="M68211 3303 L68211 3303" class="ps02 ps17"/>
<path d="M68441 3209 L68690 3107" class="ps02 ps17"/>
<path d="M68690 3107 L69419 2617" class="ps02 ps17"/>
<path d="M69419 2617 L69891 1876" class="ps02 ps17"/>
<path d="M69891 1876 L70221 1004" class="ps02 ps17"/>
<path d="M70221 1004 L70412 733" class="ps02 ps17"/>
<path d="M70412 733 L70853 574" class="ps02 ps17"/>
<path d="M70853 574 L71238 703" class="ps02 ps17"/>
<path d="M71238 703 L71473 1021" class="ps02 ps17"/>
<path d="M71473 1021 L71714 1717" class="ps02 ps17"/>
<path d="M71796 1952 L71796 1952" class="ps02 ps17"/>
<path d="M71877 2187 L72119 2883" class="ps02 ps17"/>
<path d="M72119 2883 L72157 3227" class="ps02 ps17"/>
<path d="M72157 3227 L72044 3554" class="ps02 ps17"/>
<path d="M72044 3554 L71704 4099" class="ps02 ps17"/>
<path d="M71704 4099 L71354 4893" class="ps02 ps17"/>
<path d="M71354 4893 L71238 5803" class="ps02 ps17"/>
<path d="M71238 5803 L71361 6597" class="ps02 ps17"/>
<path d="M71361 6597 L71687 7339" class="ps02 ps17"/>
<path d="M71687 7339 L72162 7938" class="ps02 ps17"/>
<path d="M72162 7938 L72645 8329" class="ps02 ps17"/>
<path d="M72645 8329 L73253 8654" class="ps02 ps17"/>
<path d="M73253 8654 L73531 8724" class="ps02 ps17"/>
<path d="M73772 8785 L73772 8785" class="ps02 ps17"/>
<path d="M74013 8846 L74291 8916" class="ps02 ps17"/>
<path d="M74291 8916 L74267 9083" class="ps02 ps17"/>
<path d="M74267 9083 L74003 9083" class="ps02 ps17"/>
<path d="M73755 9083 L73755 9083" class="ps02 ps17"/>
<path d="M73506 9083 L73009 9083" class="ps02 ps17"/>
<path d="M72760 9083 L72760 9083" class="ps02 ps17"/>
<path d="M72512 9083 L72015 9083" class="ps02 ps17"/>
<path d="M71766 9083 L71766 9083" class="ps02 ps17"/>
<path d="M71517 9083 L71020 9083" class="ps02 ps17"/>
<path d="M70772 9083 L70772 9083" class="ps02 ps17"/>
<path d="M70523 9083 L70026 9083" class="ps02 ps17"/>
<path d="M69777 9083 L69777 9083" class="ps02 ps17"/>
<path d="M69529 9083 L69031 9083" class="ps02 ps17"/>
<path d="M68783 9083 L68783 9083" class="ps02 ps17"/>
<path d="M68534 9083 L68037 9083" class="ps02 ps17"/>
<path d="M67788 9083 L67788 9083" class="ps02 ps17"/>
<path d="M67540 9083 L67043 9083" class="ps02 ps17"/>
<path d="M66794 9083 L66794 9083" class="ps02 ps17"/>
<path d="M66545 9083 L66048 9083" class="ps02 ps17"/>
<path d="M65800 9083 L65800 9083" class="ps02 ps17"/>
<path d="M65551 9083 L65287 9083" class="ps02 ps17"/>
<path d="M65287 9083 L64568 9237" class="ps02 ps17"/>
<path d="M64568 9237 L63974 9671" class="ps02 ps17"/>
<path d="M63974 9671 L63517 10182" class="ps02 ps17"/>
<path d="M63352 10367 L63352 10367" class="ps02 ps17"/>
<path d="M63186 10553 L62854 10923" class="ps02 ps17"/>
<path d="M62689 11109 L62689 11109" class="ps02 ps17"/>
<path d="M62523 11294 L62192 11665" class="ps02 ps17"/>
<path d="M62026 11850 L62026 11850" class="ps02 ps17"/>
<path d="M61860 12035 L61529 12406" class="ps02 ps17"/>
<path d="M61363 12591 L61363 12591" class="ps02 ps17"/>
<path d="M61198 12777 L60741 13287" class="ps02 ps17"/>
<path d="M44824 56623 L44062 56771 L43088 56974 L42168 56981 L41967 56842 L41891 56611 L42068 56323 L42224 56036 L42597 55417 L43200 54700 L43574 54081 L44098 53475 L45099 52993 L46091 52340 L47310 51525 L48215 50835 L49177 50013 L50271 49269 L51371 48632 L52424 47912 L53616 47377 L54817 47034 L55441 46700 L55729 46471 L55840 46144 L55797 45761 L55527 45519 L54797 45473 L53812 45462 L52769 45582 L51460 45910 L50097 46433 L48797 46952 L47442 47624 L45941 48369 L44541 49001 L42913 49388 L41220 49736 L40025 50207 L38314 51027 L36812 51750 L35625 52370 L34375 52609 L32941 52622 L32146 52173 L31781 51744 L31771 51167 L32195 50694 L33075 50347 L34696 49832 L35880 49169 L37193 48499 L38376 47815 L39797 47182 L41161 46659 L42053 46140 L42755 45267 L43677 44490 L44616 43550 L46163 42093 L47434 41029" class="ps06 ps13"/>
<path d="M47434 41023 L48853 40604 L49555 40452 L50783 40420 L52008 40354 L52984 40231 L54189 39780 L55279 39160 L56406 38573 L57315 37857 L58276 37454 L59525 37176 L60798 36686 L61739 35899 L62374 34671 L62621 33395 L62497 32384 L60988 32395 L59583 33699 L57987 34698 L56459 35657 L54563 36953 L52782 37786 L51949 37971 L50954 37744 L50381 37530 L49559 37258 L48475 37352 L47289 37486 L45893 38298 L44657 38821 L43711 39504 L42280 40318 L41093 41084 L40151 41837 L39024 42424 L37679 42883 L36126 43387 L34459 43723 L32757 44061 L31497 44129 L29706 44120 L28287 43846 L26729 43614 L25892 43063 L25407 42528 L25299 41832 L25667 41496 L26550 41589 L27860 41799 L29233 41865 L30532 41865 L31613 41736 L33176 41406 L34623 40907 L35859 40384 L37470 39666 L38805 39032 L40236 38218 L41554 37269 L42802 36325 L43652 35156 L44631 34437 L46007 33906 L47803 33353 L49241 32679 L50018 32110 L50087 31440 L49358 30953 L48057 30918 L46019 30888 L44275 31087 L42499 31359 L41187 31780 L39325 32407 L37743 33019 L36667 33253 L35442 33319 L34546 32981 L34269 32400 L34509 31650 L35045 31165 L36082 30863 L37438 30614 L38639 30093 L39896 29324 L41194 28657 L42384 27926 L43162 27393 L43421 26326 L43646 25296 L43692 24206" class="ps06 ps13"/>
<path d="M43673 24204 L42945 23363 L42289 22570 L41592 21728 L41443 21029 L41502 19656 L41464 18134 L41317 17289 L41710 17007 L42353 17119 L42817 17442 L43504 18058 L44087 18658 L44899 19087 L45924 19299 L47153 19628 L48544 21024" class="ps06 ps13"/>
<path d="M48508 20987 L49441 23389 L50322 24834 L51042 25375 L51835 25600 L52721 25908 L54031 25793 L54850 24857 L55782 23113 L56613 21174 L57470 19278 L58662 17809 L59199 16198 L59730 14475 L60003 12923" class="ps06 ps13"/>
<path d="M59993 12928 L60408 12331 L60769 11743 L61112 11016 L61568 9964 L62079 9184 L62633 8541 L62852 7844" class="ps06 ps13"/>
<path d="M62849 7846 L62842 7528 L62802 7242 L62663 7074 L62344 7014 L61784 7178 L61616 7373" class="ps06 ps13"/>
</g>
</g>
</g>
</g>
</svg>
