<?xml version="1.0" encoding="UTF-8" standalone="yes"?>
<!-- Created with sK1/UniConvertor (http://sk1project.org/) -->
<svg xmlns="http://www.w3.org/2000/svg" xmlns:xlink="http://www.w3.org/1999/xlink"
  width="595.276pt" height="841.89pt" viewBox="0 0 595.276 841.89"
  fill-rule="evenodd">
<g>
<path style="stroke:#ffbd00; stroke-width:0.850394; stroke-linejoin:round; stroke-linecap:round; fill:none" d="M 108.331 386.863L 66.8125 388.943"/>
<path style="stroke:#ffbd00; stroke-width:0.850394; stroke-linejoin:round; stroke-linecap:round; fill:none" d="M 108.602 371.261L 73.1751 372.323"/>
<path style="stroke:#ffbd00; stroke-width:0.850394; stroke-linejoin:round; stroke-linecap:round; fill:none" d="M 66.8125 388.943L 6.28935 416.837"/>
<path style="stroke:#ffbd00; stroke-width:0.850394; stroke-linejoin:round; stroke-linecap:round; fill:none" d="M 60.5231 375.297L 0 403.191"/>
<path style="stroke:#ffbd00; stroke-width:0.850394; stroke-linejoin:round; stroke-linecap:round; fill:none" d="M 117.978 344.874L 70.3294 303.684"/>
<path style="stroke:#ffbd00; stroke-width:0.850394; stroke-linejoin:round; stroke-linecap:round; fill:none" d="M 108.602 371.261C 116.688 371.023 123.178 364.385 123.178 356.242C 123.178 351.703 121.162 347.632 117.977 344.876"/>
<path style="stroke:#ffbd00; stroke-width:0.850394; stroke-linejoin:round; stroke-linecap:round; fill:none" d="M 147.005 350.102C 149.64 352.382 153.075 353.762 156.83 353.762C 158.607 353.762 160.313 353.453 161.896 352.885"/>
<path style="stroke:#ffbd00; stroke-width:0.850394; stroke-linejoin:round; stroke-linecap:round; fill:none" d="M 147.004 350.103L 80.156 292.316"/>
<path style="stroke:#ffbd00; stroke-width:0.850394; stroke-linejoin:round; stroke-linecap:round; fill:none" d="M 170.137 402.531L 146.46 406.728L 121.905 391.852L 108.331 386.863"/>
<path style="stroke:#ffbd00; stroke-width:0.850394; stroke-linejoin:round; stroke-linecap:round; fill:none" d="M 173.394 447.808L 150.138 486.925L 107.929 513.616L 81.818 529.512L 61.5779 531.296L 64.6419 506.517L 60.1738 480.398L 30.8021 462.145"/>
<path style="stroke:#ffbd00; stroke-width:0.850394; stroke-linejoin:round; stroke-linecap:round; fill:none" d="M 162.63 441.409L 140.908 477.946L 101.327 502.976L 82.7687 506.944L 80.2646 505.935L 76.3947 504.358L 71.5666 472.735L 37.4113 451.51"/>
<path style="stroke:#ffbd00; stroke-width:0.850394; stroke-linejoin:round; stroke-linecap:round; fill:none" d="M 645.966 690.092L 646.025 664.66L 633.15 623.836L 613.016 596.804L 595.814 558.376L 577.134 530.926L 566.102 524.662L 547.351 532.776L 527.585 564.401L 518.376 588.931L 495.276 608.552L 467.894 610.408L 450.08 629.081L 428.843 641.602L 402.409 649.218L 408.102 677.436L 409.009 700.471"/>
<path style="stroke:#ffbd00; stroke-width:0.850394; stroke-linejoin:round; stroke-linecap:round; fill:none" d="M 666.551 679.458L 662.27 661.693L 655.582 645.842L 645.593 603.592L 632.167 593.963L 626.941 568.999L 617.869 545.944L 604.937 530.079L 588.175 509.407L 573.8 494.498L 563.23 495.913L 556.469 511.733L 531.006 514.553L 517.03 535.154L 501.563 574.964L 490.004 588.373L 480.87 592.191L 455.405 595.971L 427.984 614.622L 427.059 599.264L 430.951 577.68L 455.983 553.745L 452.697 506.361L 447.813 494.328L 442.323 485.801L 432.314 482.272L 415.8 475.722L 405.295 470.188L 387.795 457.125L 361.274 446.045L 350.263 442.513L 343.035 433.116L 348.057 428.677L 356.412 427.584L 398.719 441.792L 425.542 450.659L 439.485 453.656L 455.215 454.286L 467.973 456.688L 486.67 457.62L 506.847 460.336L 537.118 462.185L 546.933 453.608L 545.191 433.387L 543.427 425.969L 499.501 413.235L 475.312 406.067L 460.145 397.022L 436 370.886L 414.195 358.507L 379.098 334.186L 356.331 327.969L 334.52 318.434L 313.181 310.324L 290.883 306.005L 266.685 302.63L 238.199 306.357L 223 309.126L 235.362 299.671L 296.139 288.905L 359.729 299.967L 390.082 309.995L 435.655 342.161L 467.486 361.191L 481.121 372.596L 509.848 377.927L 540.441 378.743L 552.395 372.434L 562.848 369.476L 596.796 391.577L 610.242 405.454L 637.282 428.109L 658.434 444.32L 694.399 457.035L 703.761 443.264L 706.419 423.514L 700.506 398.898L 684.509 376.821L 655.807 365.199L 629.31 361.382L 620.002 352.787L 596.902 338.941L 571.526 327.635L 554.372 323.867L 526.018 323.056L 498.795 317.029L 483.526 304.693L 468.274 284.901L 453.769 265.112L 431.005 251.551L 405.662 239.191L 370.631 221.59L 335.981 200.263L 304.998 190.035L 327.4 183.377L 367.689 194.292L 386.69 206.264L 404.947 217.116L 430.362 223.921L 459.451 229.58L 527.648 264.777L 573.893 273.458L 611.571 276.154L 639.587 262.054L 633.657 244.521L 606.783 245.521L 578.07 238.373L 562.407 230.113L 527.386 208.039L 501.324 184.122L 462.203 160.175L 449.939 139.272L 445.856 130.317L 470.064 149.011"/>
<path style="stroke:#ffbd00; stroke-width:0.850394; stroke-linejoin:round; stroke-linecap:round; fill:none" d="M 386.17 699.016L 376.228 659.564L 380.952 641.531L 399.042 628.875L 411.112 616.206L 406.42 578.044L 417.234 566.355L 432.747 550.928L 443.884 530.607L 436.245 507.406L 434.256 496.655L 416.181 487.97L 409.251 482.733L 387.867 472.207L 369.897 463.324L 338.289 458.561L 315.249 445.952L 316.67 429.115L 327.065 420.616L 337.909 417.592L 354.058 413.944L 357.291 411.648L 368.809 416.051L 406.408 429.519L 440.731 443.419L 462.169 445.773L 484.298 448.127L 518.436 441.987L 496.796 427.655L 470.756 421.375L 434.58 399.6L 424.471 383.913L 406.036 370.216L 388.079 358.427L 354.889 342.653L 333.472 331.777L 302.57 322.47L 280.215 318.272L 253.466 319.362L 231.329 320.693L 211.232 324.991L 205.988 299.409L 220.082 285.364L 270.83 275.806L 309.147 275.886L 338.644 282.405L 378.54 294.489L 432.703 324.365L 455.724 339.852L 491.882 357.673L 505.186 364.478L 521.035 366.724L 546.125 358.679L 557.93 355.391L 628.283 384.653L 658.483 398.72L 680.917 423.083L 673.589 403.176L 656.676 382.877L 646.356 381.748L 629.419 371.764L 622.416 370.642L 606.955 360.293L 567.188 338.1L 542.858 336.57L 514.09 340.556L 471.713 310.924L 432.698 282.102L 419.471 262.181L 405.061 254.335L 382.219 247.283L 363.811 235.822L 331.38 218.395L 307.804 209.868L 289.766 197.671L 288.336 178.145L 306.434 164.558L 347.724 166.127L 373.493 183.131L 405.902 198.676L 457.908 210.976L 492.159 227.262L 540.775 249.107L 573.201 257.654L 589.793 257.324L 578.019 246.615L 555.18 238.09L 508.031 207.718L 473.801 182.591L 436.984 160.036L 416.749 141.204L 414.588 119.466L 414.98 109.153L 437.108 106.258L 466.224 111.114"/>
<path style="stroke:#ff0000; stroke-width:0.850394; stroke-linejoin:round; stroke-linecap:round; fill:none" d="M 324.432 496.649L 311.607 480.991L 313.933 471.756L 329.856 467.088L 345.625 474.52L 364.697 475.949L 371.37 472.821L 384.615 480.591L 394.672 486.456L 401.404 496.637L 407.353 504.079L 418.748 509.532L 424.709 508.744L 426.855 510.783L 425.741 514.058L 430.745 524.186L 434.56 529.248L 423.318 536.106L 415.673 545.64L 414.601 554.427L 416.484 558.334L 407.016 567.471L 400.227 576.647L 396.01 586.369L 394.989 594.881L 398.488 597.894L 402.063 609.763L 402.658 613.646L 396.445 619.921L 384.657 626.16L 379.248 628.958L 375.828 634.459L 371.333 644.412L 371.146 656.445L 368.269 669.95L 374.627 677.859L 378.94 688.31L 381.356 696.892L 386.606 700.655L 406.757 704.098L 412.455 723.758L 405.173 739.093L 391.889 740.116L 382.774 723.985L 373.049 707.949L 364.937 700.68L 348.77 693.595L 334.813 691.308L 334.845 677.886L 337.633 666.658L 341.943 654.726L 336.555 637.476L 335.478 621.226L 336.707 602.158L 342.743 590.072L 345.226 581.713L 347.077 574.415L 350.55 562.783L 352.532 550.465L 343.793 547.894L 337.951 544.201L 326.941 521.789L 301.028 507.512L 306.051 501.013L 322.066 506.559L 330.162 500.047L 324.432 496.649z"/>
<path style="stroke:#ff0000; stroke-width:0.850394; stroke-linejoin:round; stroke-linecap:round; fill:none" d="M 495.139 580.033L 477.166 579.992L 466.695 559.485L 494.604 527.396L 500.344 520.495L 508.093 528.996L 515.851 529.014L 508.781 554.073L 501.732 570.084L 495.139 580.033z"/>
<path style="stroke:#ff0000; stroke-width:0.850394; stroke-linejoin:round; stroke-linecap:round; fill:none" d="M 534.437 485.473L 489.57 477.419L 435.853 467.755L 430.397 481.511L 444.378 485.849L 452.697 506.361L 455.983 553.745L 430.951 577.68L 428.876 596.022L 429.885 612.107L 457.679 589.35L 463.879 581.395L 457.752 559.908L 476.124 539.985L 501.176 508.106L 512.296 513.897L 512.28 520.523L 516.338 521.473L 523.171 503.78L 544.03 492.865L 541.587 486.549L 534.437 485.473z"/>
<path style="stroke:#ff0000; stroke-width:0.850394; stroke-linejoin:round; stroke-linecap:round; fill:none" d="M 197.389 402.645L 196.686 392.518L 211.827 376.269L 227.616 365.274L 238.054 363.63L 249.945 368.379L 267.915 363.769L 284.43 358.756L 286.538 362.896L 280.761 378.549L 283.443 388.243L 283.843 391.671L 267.538 394.497L 246.601 397.436L 234.15 404.178L 228.426 395.662L 218.157 392.767L 200.592 404.101L 197.389 402.645z"/>
<path style="stroke:#ff0000; stroke-width:0.850394; stroke-linejoin:round; stroke-linecap:round; fill:none" d="M 232.631 411.187L 221.642 398.139L 204.598 404.611L 195.171 412.23L 186.055 428.182L 175.167 437.405L 176.464 443.862L 182.97 443.878L 192.999 438.643L 206.036 429.969L 216.299 425.144L 225.45 416.509L 232.631 411.187z"/>
<path style="stroke:#ff0000; stroke-width:0.850394; stroke-linejoin:round; stroke-linecap:round; fill:none" d="M 283.183 426.831L 274.154 419.435L 253.16 414.24L 238.134 414.205L 230.079 423.391L 219.08 423.366L 213.045 433.681L 198.007 439.156L 184.458 450.143L 172.938 450.117L 161.068 473.508L 169.864 479.661L 178.407 467.66L 190.428 467.688L 198.423 475.72L 216.955 475.763L 225.231 470.189L 236.502 470.215L 240.525 463.296L 240.555 450.273L 247.589 442.698L 258.604 442.724L 283.183 426.831z"/>
<path style="stroke:#ff0000; stroke-width:0.850394; stroke-linejoin:round; stroke-linecap:round; fill:none" d="M 180.154 605.845L 173.502 636.629L 157.219 642.617L 147.11 670.048L 134.843 662.764L 134.897 639.358L 137.408 624.9L 135.94 611.431L 126.344 599.587L 120.836 592.979L 127.043 586.748L 130.358 577.743L 121.55 560.659L 121.598 540.155L 105.149 524.089L 128.762 505.38L 151.282 501.155L 170.876 489.025L 181.892 476.459L 194.402 481.721L 212.934 481.764L 234.972 481.815L 242.466 490.347L 219.336 519.427L 196.295 529.308L 178.807 548.162L 166.664 563.204L 156.35 594.196L 180.154 605.845z"/>
<path style="stroke:#ff0000; stroke-width:0.850394; stroke-linejoin:round; stroke-linecap:round; fill:none" d="M 112.365 531.062L 118.76 546.672L 119.151 566.844L 127.558 580.238L 120.527 588.736L 108.969 595.042L 92.1975 584.912L 77.9367 595.65L 73.0212 589.073L 85.8752 575.422L 96.4369 557.42L 102.536 535.719L 112.365 531.062z"/>
<path style="stroke:#ff0000; stroke-width:0.850394; stroke-linejoin:round; stroke-linecap:round; fill:none" d="M 736.826 537.531L 591.629 390.082L 601.769 370.77L 657.243 391.915L 687.437 431.495L 714.996 442.022L 732.743 456.485L 732.094 479.913L 734.898 497.971L 738.224 512.677L 737.88 530.298L 736.826 537.531z"/>
<path style="stroke:#ff0000; stroke-width:0.850394; stroke-linejoin:round; stroke-linecap:round; fill:none" d="M 666.768 678.936L 635.94 694.878L 626.375 715.686L 630.897 738.465L 702.485 818.908L 710.775 811.53L 748.6 818.148L 755.903 804.38L 768.168 809.414L 777.475 815.711L 783.492 825.2L 787.695 836.373L 790.123 839.84L 795.766 841.89L 800.688 840.251L 803.703 836.184L 812.021 812.38L 812.523 807.985L 811.082 803.803L 806.757 796.816L 802.297 786.653L 800.845 775.005L 802.436 764.841L 806.634 755.363L 812.724 747.712L 818.918 742.72L 826.709 738.582L 840 735.266L 839.692 733.123L 724.809 732.857L 715.609 730.871L 708.023 725.3L 666.768 678.936"/>
</g>
</svg>