{
"type": "FeatureCollection",
"name": "entities",
"crs": { "type": "name", "properties": { "name": "urn:ogc:def:crs:OGC:1.3:CRS84" } },
"features": [
{ "type": "Feature", "properties": { "Layer": "road", "SubClasses": "AcDbEntity:AcDbPolyline", "Linetype": "Continuous", "EntityHandle": "10D8" }, "geometry": { "type": "LineString", "coordinates": [ [ 784233.737813513609581, 9604166.036481080576777, 1385.0 ], [ 784233.751665899879299, 9604166.537983536720276, 1385.0 ], [ 784233.744373672758229, 9604166.928317176178098, 1385.0 ], [ 784233.72047974797897, 9604167.21647210046649, 1385.0 ], [ 784233.684527040575631, 9604167.411438394337893, 1385.0 ], [ 784233.641058465349488, 9604167.522206149995327, 1385.0 ], [ 784233.594616938848048, 9604167.557765459641814, 1385.0 ], [ 784233.549745375989005, 9604167.527106408029795, 1385.0 ], [ 784233.511210031108931, 9604167.438702864572406, 1385.0 ], [ 784233.484670513076708, 9604167.298963787034154, 1385.0 ], [ 784233.476009770762175, 9604167.113781912252307, 1385.0 ], [ 784233.491110751987435, 9604166.889049973338842, 1385.0 ], [ 784233.535856403876096, 9604166.630660697817802, 1385.0 ], [ 784233.616129674832337, 9604166.34450682066381, 1385.0 ], [ 784233.737813513609581, 9604166.036481080576777, 1385.0 ] ] } },
{ "type": "Feature", "properties": { "Layer": "TK", "SubClasses": "AcDbEntity:AcDbLine", "ExtendedEntity": "121120 1632965436", "Linetype": "Continuous", "EntityHandle": "2AD1" }, "geometry": { "type": "LineString", "coordinates": [ [ 784352.367334029055201, 9604764.677711712196469, 0.0 ], [ 784352.367334029055201, 9604769.677711712196469, 0.0 ] ] } },
{ "type": "Feature", "properties": { "Layer": "road", "SubClasses": "AcDbEntity:AcDbPolyline", "Linetype": "DASHDOT", "EntityHandle": "36CA" }, "geometry": { "type": "LineString", "coordinates": [ [ 784335.554324026335962, 9604674.440671883523464, 1195.0 ], [ 784397.028586401371285, 9604706.412013167515397, 1195.0 ], [ 784416.030125889927149, 9604747.999801056459546, 1195.0 ], [ 784406.896639885497279, 9604793.4581344332546, 1195.0 ], [ 784263.598427900578827, 9604953.734879685565829, 1195.0 ], [ 784247.079947217018344, 9604938.966244699433446, 1195.0 ], [ 784171.53100671293214, 9604952.005000878125429, 1195.0 ], [ 784157.01365138462279, 9604924.481563132256269, 1195.0 ], [ 784132.503102358547039, 9604934.475447604432702, 1195.0 ], [ 784113.893636714550667, 9604947.004241513088346, 1195.0 ], [ 784101.835206880001351, 9604965.921882968395948, 1195.0 ], [ 784093.392208916251548, 9604988.211045252159238, 1195.0 ], [ 784088.528766301227733, 9604995.121450006961823, 1195.0 ], [ 784077.254599852487445, 9604999.187408726662397, 1195.0 ], [ 784067.433864754857495, 9604995.892496310174465, 1195.0 ], [ 784061.433219379163347, 9604987.759946132078767, 1195.0 ], [ 784044.935640555573627, 9604940.195748165249825, 1195.0 ], [ 784043.955207422724925, 9604931.418990133330226, 1195.0 ], [ 784046.850251120747998, 9604923.075642323121428, 1195.0 ], [ 784055.51768051518593, 9604909.146089695394039, 1195.0 ], [ 784064.470375256263651, 9604888.87521711550653, 1195.0 ], [ 784067.422400218201801, 9604865.626093313097954, 1195.0 ], [ 784064.292995520750992, 9604845.325599696487188, 1195.0 ], [ 784055.954206549096853, 9604826.383201936259866, 1195.0 ], [ 784043.831726342556067, 9604811.079988634213805, 1195.0 ], [ 784031.48831174778752, 9604801.085691383108497, 1195.0 ], [ 784015.951972588547505, 9604792.788130734115839, 1195.0 ], [ 783989.431653807754628, 9604786.106120398268104, 1195.0 ], [ 783990.05667256785091, 9604781.827935548499227, 1195.0 ], [ 784219.424824928864837, 9604781.827935548499227, 1195.0 ], [ 784237.801582340267487, 9604777.904629511758685, 1195.0 ], [ 784252.974000049522147, 9604766.818814978003502, 1195.0 ], [ 784335.554324026335962, 9604674.440671883523464, 1195.0 ] ] } },
{ "type": "Feature", "properties": { "Layer": "road", "SubClasses": "AcDbEntity:AcDbMText", "ExtendedEntity": "ACAD_MTEXT_DEFINED_HEIGHT_BEGIN     46 388.1805486616503 ACAD_MTEXT_DEFINED_HEIGHT_END", "EntityHandle": "36CB", "Text": "{\\fSimSun|b1|i0|c134|p2;1195m閲囩熆宸ヤ笟鍦哄湴}" }, "geometry": { "type": "Point", "coordinates": [ 784195.812616324750707, 9604879.105274092406034, 1195.173 ] } },
{ "type": "Feature", "properties": { "Layer": "road", "SubClasses": "AcDbEntity:AcDbLine", "ExtendedEntity": "113D63 15.0", "EntityHandle": "36CC" }, "geometry": { "type": "LineString", "coordinates": [ [ 785451.281114294542931, 9604093.011231919750571, 0.0 ], [ 785534.164457789040171, 9604097.355857590213418, 0.0 ] ] } },
{ "type": "Feature", "properties": { "Layer": "road", "SubClasses": "AcDbEntity:AcDbLine", "ExtendedEntity": "113D63 15.0", "EntityHandle": "36CD" }, "geometry": { "type": "LineString", "coordinates": [ [ 785450.81273129908368, 9604061.859619956463575, 0.0 ], [ 785521.538059453829192, 9604064.142287600785494, 0.0 ] ] } },
{ "type": "Feature", "properties": { "Layer": "road", "SubClasses": "AcDbEntity:AcDbLine", "ExtendedEntity": "113D65 15.0", "EntityHandle": "36CF" }, "geometry": { "type": "LineString", "coordinates": [ [ 785534.164457789040171, 9604097.355857590213418, 0.0 ], [ 785654.87173491762951, 9604153.325948428362608, 0.0 ] ] } },
{ "type": "Feature", "properties": { "Layer": "road", "SubClasses": "AcDbEntity:AcDbLine", "ExtendedEntity": "113D65 15.0", "EntityHandle": "36D0" }, "geometry": { "type": "LineString", "coordinates": [ [ 785546.784333716263063, 9604070.139341803267598, 0.0 ], [ 785667.491610844968818, 9604126.109432639554143, 0.0 ] ] } },
{ "type": "Feature", "properties": { "Layer": "road", "SubClasses": "AcDbEntity:AcDbLine", "ExtendedEntity": "A 20.0      5 5F1 15.0", "EntityHandle": "36D1" }, "geometry": { "type": "LineString", "coordinates": [ [ 785432.213783486629836, 9604009.134424693882465, 0.0 ], [ 785527.536615861114115, 9603927.116540003567934, 0.0 ] ] } },
{ "type": "Feature", "properties": { "Layer": "road", "SubClasses": "AcDbEntity:AcDbCircle:AcDbArc", "ExtendedEntity": "A 20.0      5 5F1 15.0", "EntityHandle": "36D2" }, "geometry": { "type": "LineString", "coordinates": [ [ 785432.213783456827514, 9604009.134424718096852, 0.0 ], [ 785430.702341887867078, 9604010.527819417417049, 0.0 ], [ 785429.289873993606307, 9604012.021452186629176, 0.0 ], [ 785427.983012102427892, 9604013.608309583738446, 0.0 ], [ 785426.787892663152888, 9604015.280940424650908, 0.0 ], [ 785425.710127431433648, 9604017.03149076923728, 0.0 ], [ 785424.754777119145729, 9604018.85174080170691, 0.0 ], [ 785423.926327631343156, 9604020.733143430203199, 0.0 ], [ 785423.228669002768584, 9604022.666864411905408, 0.0 ], [ 785422.665077131474391, 9604024.643823847174644, 0.0 ], [ 785422.238198397448286, 9604026.654738798737526, 0.0 ], [ 785421.95003723539412, 9604028.690166898071766, 0.0 ], [ 785421.801946723484434, 9604030.740550668910146, 0.0 ], [ 785421.794622229645029, 9604032.796262407675385, 0.0 ], [ 785421.928098146570846, 9604034.847649397328496, 0.0 ], [ 785422.20174773002509, 9604036.88507922552526, 0.0 ], [ 785422.614286041818559, 9604038.898985018953681, 0.0 ], [ 785423.163775983382948, 9604040.879910359159112, 0.0 ], [ 785423.847637391416356, 9604042.818553693592548, 0.0 ], [ 785424.662659153342247, 9604044.705812003463507, 0.0 ], [ 785425.605014285305515, 9604046.53282355517149, 0.0 ], [ 785426.670277901808731, 9604048.291009502485394, 0.0 ], [ 785427.853447993053123, 9604049.972114181146026, 0.0 ], [ 785429.148968912428245, 9604051.56824385933578, 0.0 ], [ 785430.550757463090122, 9604053.071903813630342, 0.0 ], [ 785432.052231462323107, 9604054.476033519953489, 0.0 ], [ 785433.646340648061596, 9604055.774039801210165, 0.0 ], [ 785435.325599784264341, 9604056.959827790036798, 0.0 ], [ 785437.08212380821351, 9604058.027829548344016, 0.0 ], [ 785438.907664855127223, 9604058.973030209541321, 0.0 ], [ 785440.793650986626744, 9604059.790991524234414, 0.0 ], [ 785442.731226440984756, 9604060.477872708812356, 0.0 ], [ 785444.711293215397745, 9604061.030448468402028, 0.0 ], [ 785446.724553786800243, 9604061.446124151349068, 0.0 ], [ 785448.761554768192582, 9604061.722947929054499, 0.0 ], [ 785450.812731298618019, 9604061.859619956463575, 0.0 ] ] } },
{ "type": "Feature", "properties": { "Layer": "road", "SubClasses": "AcDbEntity:AcDbCircle:AcDbArc", "ExtendedEntity": "1021C0 20.0 10.000K = 10.000K  新建道路 80.0      6", "EntityHandle": "36D3" }, "geometry": { "type": "LineString", "coordinates": [ [ 785344.497357593616471, 9604024.920514130964875, 0.0 ], [ 785346.381819907343015, 9604025.530498338863254, 0.0 ], [ 785348.302426633890718, 9604026.014800667762756, 0.0 ], [ 785350.250805466901511, 9604026.371309949085116, 0.0 ], [ 785352.218463035533205, 9604026.598472088575363, 0.0 ], [ 785354.196821929188445, 9604026.695296838879585, 0.0 ], [ 785356.177258088137023, 9604026.661362124606967, 0.0 ], [ 785358.151138397399336, 9604026.496815871447325, 0.0 ], [ 785360.109858320327476, 9604026.202375371009111, 0.0 ], [ 785362.044879407156259, 9604025.779324147850275, 0.0 ], [ 785363.94776651635766, 9604025.229506364092231, 0.0 ], [ 785365.810224584653042, 9604024.555318787693977, 0.0 ], [ 785367.624134786892682, 9604023.759700335562229, 0.0 ], [ 785369.381589928059839, 9604022.84611926600337, 0.0 ], [ 785371.074928911752068, 9604021.818558059632778, 0.0 ], [ 785372.696770136477426, 9604020.681496061384678, 0.0 ], [ 785374.240043673897162, 9604019.439889952540398, 0.0 ] ] } },
{ "type": "Feature", "properties": { "Layer": "road", "SubClasses": "AcDbEntity:AcDbLine", "ExtendedEntity": "A 20.0      5 5F1 15.0", "EntityHandle": "36D4" }, "geometry": { "type": "LineString", "coordinates": [ [ 785374.240043644211255, 9604019.439889976754785, 0.0 ], [ 785507.969918703776784, 9603904.375731699168682, 0.0 ] ] } },
{ "type": "Feature", "properties": { "Layer": "road", "SubClasses": "AcDbEntity:AcDbPolyline", "EntityHandle": "36D5" }, "geometry": { "type": "LineString", "coordinates": [ [ 785327.811206103884615, 9604124.006761193275452 ], [ 785375.063203124329448, 9604132.495093597099185 ], [ 785424.157119873096235, 9604102.908106412738562 ], [ 785451.281114294542931, 9604093.011231919750571 ] ] } },
{ "type": "Feature", "properties": { "Layer": "road", "SubClasses": "AcDbEntity:AcDbPolyline", "EntityHandle": "36D6" }, "geometry": { "type": "LineString", "coordinates": [ [ 785293.0, 9604155.0, 1291.0 ], [ 785375.148265601252206, 9604292.349576514214277, 1291.0 ], [ 785459.295568130444735, 9604345.833431424573064, 1291.0 ], [ 785511.353670389973558, 9604377.69045952335, 1291.0 ], [ 785551.755384808406234, 9604381.346764627844095, 1291.0 ], [ 785545.752478846348822, 9604331.860628658905625, 1291.0 ], [ 785554.793673031381331, 9604279.733340645208955, 1291.0 ], [ 785586.0, 9604219.0, 1291.0 ] ] } },
{ "type": "Feature", "properties": { "Layer": "road", "SubClasses": "AcDbEntity:AcDbPolyline", "EntityHandle": "36D7" }, "geometry": { "type": "LineString", "coordinates": [ [ 785319.0, 9604151.0, 1291.0 ], [ 785406.544968083733693, 9604289.92246169410646, 1291.0 ], [ 785485.455031916382723, 9604340.07753830589354, 1291.0 ], [ 785507.778747883159667, 9604345.880847800523043, 1291.0 ], [ 785512.782999326242134, 9604343.878950955346227, 1291.0 ], [ 785520.516662898473442, 9604340.748033996671438, 1291.0 ], [ 785530.302106997696683, 9604277.633829405531287, 1291.0 ], [ 785563.016384386573918, 9604216.007860217243433, 1291.0 ] ] } },
{ "type": "Feature", "properties": { "Layer": "road", "SubClasses": "AcDbEntity:AcDbPolyline", "EntityHandle": "36D8" }, "geometry": { "type": "LineString", "coordinates": [ [ 784376.477451401995495, 9604695.932529797777534 ], [ 784376.477451401995495, 9604645.155903339385986 ], [ 784402.370874311425723, 9604563.709352854639292 ], [ 784442.693198713590391, 9604509.833332613110542 ], [ 784477.215173440985382, 9604433.189369989559054 ], [ 784514.637328055920079, 9604378.471008852124214 ], [ 784536.69303216773551, 9604366.016365827992558 ], [ 784574.091844014357775, 9604382.303209315985441 ], [ 784613.408550641033798, 9604445.534478800371289 ], [ 784631.681645494070835, 9604494.550822079181671 ], [ 784677.710948497406207, 9604533.830851387232542 ], [ 784732.370752758230083, 9604537.663051852956414 ], [ 784767.851679925457574, 9604575.026980923488736 ], [ 784810.193037636461668, 9604600.122937846928835 ], [ 784862.9349572181236, 9604615.451731218025088 ], [ 784851.43800238345284, 9604671.76221271045506 ], [ 784849.520107603748329, 9604717.748592829331756 ] ] } },
{ "type": "Feature", "properties": { "Layer": "road", "SubClasses": "AcDbEntity:AcDbPolyline", "EntityHandle": "36D9" }, "geometry": { "type": "LineString", "coordinates": [ [ 784335.427612401545048, 9604674.605505004525185 ], [ 784344.058113658917136, 9604639.157671917229891 ], [ 784357.483326614019461, 9604607.542039297521114 ], [ 784377.621146046556532, 9604523.233679987490177 ], [ 784404.471571956877597, 9604504.072686150670052 ], [ 784415.019957893528044, 9604454.254109812900424 ], [ 784433.239892647136003, 9604408.267733933404088 ], [ 784459.131376217701472, 9604376.652097072452307 ], [ 784492.694418706116267, 9604335.455967532470822 ], [ 784521.462739396258257, 9604305.756430901587009 ], [ 784542.559501168318093, 9604308.630581250414252 ], [ 784555.984714123536833, 9604340.246213871985674 ], [ 784606.808738925145008, 9604345.994510324671865 ], [ 784634.61811727588065, 9604387.190644104033709 ], [ 784665.314696086454205, 9604466.742689907550812 ], [ 784688.329342537443154, 9604493.568080432713032 ], [ 784706.549277291051112, 9604501.232477117329836 ], [ 784757.373312193667516, 9604508.896873803809285 ], [ 784812.033116454374976, 9604546.260802879929543 ], [ 784813.951001133653335, 9604515.603220377117395 ], [ 784806.279452316346578, 9604472.490990603342652 ], [ 784756.414359753369354, 9604424.588510252535343 ], [ 784763.192449211142957, 9604330.0 ], [ 784773.0, 9604306.0 ], [ 784784.0, 9604289.0 ], [ 784804.0, 9604282.0 ], [ 784837.0, 9604269.0 ], [ 784858.0, 9604258.0 ], [ 784893.0, 9604232.0 ], [ 784946.0, 9604210.0 ], [ 784968.0, 9604203.0 ], [ 784982.474728716420941, 9604184.272560710087419 ], [ 784972.468690943787806, 9604175.386594777926803 ], [ 784955.79195458907634, 9604173.165103297680616 ], [ 784871.260669190902263, 9604201.337374072521925 ], [ 784817.666198173887096, 9604218.915204703807831 ], [ 784789.814002863247879, 9604224.835676036775112 ], [ 784758.406222120043822, 9604226.019766910001636 ], [ 784732.924423831282184, 9604230.756147367879748 ], [ 784695.590640432550572, 9604232.532287921756506 ], [ 784655.293850655551068, 9604237.860709574073553 ], [ 784594.848676090477966, 9604241.412990678101778 ], [ 784575.292880457243882, 9604224.243626357987523 ], [ 784578.86370787920896, 9604183.878603111952543 ], [ 784582.419303412316367, 9604169.07742477953434 ], [ 784670.177506851381622, 9604143.856911759823561 ], [ 784718.505037218565121, 9604129.656184673309326 ], [ 784748.828202439588495, 9604111.668602688238025 ], [ 784797.155732806888409, 9604059.599284179508686 ], [ 784840.745277130394243, 9604034.984697634354234 ], [ 784910.930365747073665, 9603986.587898910045624 ], [ 784956.415098427678458, 9603974.280607756227255 ], [ 785000.004642751417123, 9603955.346307804808021 ], [ 785042.646587846218608, 9603939.25215750746429 ], [ 785087.183721298235469, 9603930.731721255928278 ], [ 785135.511251665302552, 9603924.104716697707772 ], [ 785192.367175091756508, 9603931.678434982895851 ], [ 785222.699935998651199, 9603937.276402330026031 ], [ 785198.06237625121139, 9603918.342102376744151 ], [ 785076.769735567853786, 9603896.567661248147488 ], [ 784949.759480223292485, 9603918.358871582895517 ], [ 784889.113159881904721, 9603938.239885261282325 ], [ 784797.976941701956093, 9604002.249739576131105 ], [ 784734.335979521041736, 9604040.095929646864533 ], [ 784707.061282886425033, 9604062.803644539788365 ], [ 784649.683414754457772, 9604073.314700933173299 ], [ 784588.600116980262101, 9604074.803148236125708 ], [ 784564.762736424803734, 9604062.151346167549491 ], [ 784543.905028438777663, 9604056.197561200708151 ], [ 784476.025298295542598, 9604100.165461560711265 ], [ 784449.11686393932905, 9604127.810117296874523 ], [ 784395.025033373851329, 9604172.917131945490837 ], [ 784352.720098866615444, 9604205.184324992820621 ], [ 784280.856734896660782, 9604230.404566584154963 ], [ 784262.227741106064059, 9604202.865903763100505 ], [ 784257.013314109644853, 9604163.422058736905456 ], [ 784268.932004387374036, 9604114.303310485556722 ], [ 784300.972544856369495, 9604070.300650278106332 ], [ 784358.331241818144917, 9604047.229725575074553 ], [ 784411.24964121344965, 9604039.729967379942536 ], [ 784429.872604873147793, 9604022.612827645614743 ], [ 784476.057529699406587, 9603995.076561035588384 ], [ 784526.772911136038601, 9603972.620426647365093 ], [ 784561.039145684335381, 9603965.178194377571344 ], [ 784617.652934604557231, 9603963.689747076481581 ], [ 784672.031958996667527, 9603951.782172899693251 ], [ 784702.573602833435871, 9603927.222796652466059 ], [ 784733.115256770979613, 9603887.778955863788724 ], [ 784762.167064322857186, 9603848.33511083573103 ], [ 784807.678584118257277, 9603821.365701923146844 ], [ 784858.333027899381705, 9603796.806325679644942 ], [ 784928.35533328098245, 9603761.827826801687479 ], [ 784997.632730621029623, 9603719.407087165862322 ], [ 785059.539509953116067, 9603699.129694236442447 ], [ 785014.844411310739815, 9603685.733672758564353 ], [ 784934.354970199754462, 9603707.33892472460866 ], [ 784896.36414493934717, 9603731.15407308191061 ], [ 784859.863145863171667, 9603752.736554721370339 ], [ 784809.090351923136041, 9603766.205679591745138 ], [ 784750.986736819148064, 9603777.369030121713877 ], [ 784614.666706666583195, 9603847.326036360114813 ], [ 784522.296846913173795, 9603864.443176096305251 ], [ 784447.060104434145615, 9603869.652737412601709 ], [ 784391.191243757260963, 9603841.372247153893113 ], [ 784403.109934034990147, 9603806.39374403283 ], [ 784456.761666044709273, 9603808.516164027154446 ], [ 784514.120363006251864, 9603794.375918893143535 ], [ 784545.429591005551629, 9603777.957462159916759 ], [ 784615.451906487927772, 9603734.048279466107488 ], [ 784667.596186554175802, 9603686.417978517711163 ], [ 784745.812591501511633, 9603638.787677567452192 ], [ 784770.394890199415386, 9603597.111165823414922 ], [ 784778.588999866042286, 9603579.249802440404892 ], [ 784730.169310511904769, 9603616.460972273722291 ] ] } },
{ "type": "Feature", "properties": { "Layer": "road", "SubClasses": "AcDbEntity:AcDbPolyline", "EntityHandle": "36DA" }, "geometry": { "type": "LineString", "coordinates": [ [ 784895.125392400543205, 9604714.948763059452176 ], [ 784915.157952209934592, 9604636.227530913427472 ], [ 784905.809420932200737, 9604600.20255976729095 ], [ 784869.750823376234621, 9604574.85165493004024 ], [ 784845.711751604801975, 9604549.500750094652176 ], [ 784855.2562166871503, 9604473.331859847530723 ], [ 784833.719295754679479, 9604449.943999692797661 ], [ 784802.818500548251905, 9604419.072026658803225 ], [ 784780.676888326415792, 9604378.449519950896502 ], [ 784796.034445170545951, 9604332.164164232090116 ], [ 784800.054983411449939, 9604310.708668576553464 ], [ 784836.182257026317529, 9604293.451469285413623 ], [ 784850.043199490639381, 9604283.026898186653852 ], [ 784892.784942739410326, 9604262.110327867791057 ], [ 784928.705079659353942, 9604244.458269817754626 ], [ 784991.832556910114363, 9604235.094486059620976 ], [ 785037.890299294842407, 9604210.028471138328314 ], [ 785035.131691125687212, 9604176.405512785539031 ], [ 785014.416484124958515, 9604159.388890748843551 ], [ 784992.779970074305311, 9604153.301210831850767 ], [ 784960.556313617154956, 9604145.942671913653612 ], [ 784954.111578285461292, 9604141.34358349815011 ], [ 784931.094679373316467, 9604150.081849792972207 ], [ 784855.964327798457816, 9604176.797286231070757 ], [ 784787.373961363453418, 9604204.391808232292533 ], [ 784744.562526154215448, 9604208.99089664593339 ], [ 784700.370069737778977, 9604213.589980820193887 ], [ 784632.240043705329299, 9604201.172447193413973 ], [ 784675.511819316539913, 9604172.658108355477452 ], [ 784727.530012070550583, 9604160.240574728697538 ], [ 784799.856928472174332, 9604116.933616047725081 ], [ 784820.111805171589367, 9604085.659826707094908 ], [ 784856.981793720973656, 9604058.400052672252059 ], [ 784892.888163296389394, 9604034.944708542898297 ], [ 784959.224765746155754, 9604003.605004435405135 ], [ 785002.036211055936292, 9603981.989293979480863 ], [ 785063.77440933836624, 9603963.550733156502247 ], [ 785108.427196056582034, 9603955.272377403452992 ], [ 785161.826410017791204, 9603957.571921607479453 ], [ 785206.018866434344091, 9603960.331372113898396 ], [ 785246.12305564514827, 9603969.005208009853959 ], [ 785256.710824296693318, 9603917.955341881141067 ], [ 785228.635493937297724, 9603889.848332749679685 ], [ 785127.361120542045683, 9603870.532166499644518 ], [ 785050.85972727322951, 9603870.515134347602725 ], [ 784991.936458785203286, 9603883.392578516155481 ], [ 784912.22794489027001, 9603907.334488328546286 ], [ 784803.952953031985089, 9603966.733061140403152 ], [ 784757.919145106687211, 9603997.546944182366133 ], [ 784685.646075653494336, 9604032.959915637969971 ], [ 784659.051985864643939, 9604046.484700363129377 ], [ 784627.399464629008435, 9604050.897211212664843 ], [ 784577.34431688208133, 9604034.718001939356327 ], [ 784553.788948482950218, 9604028.099233543500304 ], [ 784413.192878704634495, 9604086.197302248328924 ], [ 784352.832257283153012, 9604114.143205704167485 ], [ 784307.929851423599757, 9604162.680829282850027 ], [ 784322.651946572354063, 9604122.968227399513125 ], [ 784356.512788645457476, 9604082.520206337794662 ], [ 784377.123725894023664, 9604080.313953032717109 ], [ 784410.984557866700925, 9604060.45765209197998 ], [ 784424.970562904141843, 9604058.251394547522068 ], [ 784455.886973826913163, 9604037.659678667783737 ], [ 784535.386321971891448, 9603993.534561693668365 ], [ 784583.969259193865582, 9603990.592889208346605 ], [ 784641.385459565441124, 9603998.682491723448038 ], [ 784726.130112613784149, 9603939.717560235410929 ], [ 784804.157250233925879, 9603882.354910716414452 ], [ 784830.657029582303949, 9603842.64230883680284 ], [ 784859.462672439636663, 9603827.043384499847889 ], [ 784905.101188611821271, 9603813.070432774722576 ], [ 784941.906441634404473, 9603790.272455103695393 ], [ 785006.734945693868212, 9603755.62843699939549 ], [ 785053.845672390889376, 9603738.713812785223126 ], [ 785089.914825201616623, 9603714.445000996813178 ], [ 785092.859246251289733, 9603675.467818295583129 ], [ 785056.790093440678902, 9603648.257329776883125 ], [ 784974.346324246027507, 9603651.199002262204885 ], [ 784922.818965974031016, 9603685.028259176760912 ], [ 784858.041723078466021, 9603715.915835117921233 ], [ 784754.153848485439084, 9603740.232015464454889 ], [ 784685.696074227103963, 9603772.590434009209275 ], [ 784588.530199782922864, 9603815.98012755997479 ], [ 784523.752946786698885, 9603832.894756015390158 ], [ 784490.628215026110411, 9603832.159336833283305 ], [ 784514.183583425241522, 9603810.832197528332472 ], [ 784559.822099597309716, 9603793.917573314160109 ], [ 784654.095804026233964, 9603733.496011059731245 ], [ 784722.553578284336254, 9603683.487549116834998 ], [ 784796.164084329619072, 9603638.627017203718424 ], [ 784836.649868714739569, 9603601.120672868564725 ], [ 784841.066500289249234, 9603557.730979317799211 ], [ 784840.330389976850711, 9603537.139259196817875 ], [ 784796.164084329619072, 9603531.255909979343414 ], [ 784738.011783745605499, 9603540.816350864246488 ] ] } },
{ "type": "Feature", "properties": { "Layer": "road", "SubClasses": "AcDbEntity:AcDbFace", "EntityHandle": "36DB" }, "geometry": { "type": "Polygon", "coordinates": [ [ [ 784127.537774175172672, 9604865.679764073342085, 0.0 ], [ 784158.655796261620708, 9604837.550255756825209, 0.0 ], [ 784170.788797580054961, 9604850.927076486870646, 0.0 ], [ 784139.593277737149037, 9604879.016059253364801, 0.0 ], [ 784127.537774175172672, 9604865.679764073342085, 0.0 ] ] ] } },
{ "type": "Feature", "properties": { "Layer": "0", "SubClasses": "AcDbEntity:AcDbMText", "EntityHandle": "3A0A", "Text": "{\\C256;A3}" }, "geometry": { "type": "Point", "coordinates": [ 786028.706722513423301, 9602953.477067813277245, 1732.863705707711006 ] } },
{ "type": "Feature", "properties": { "Layer": "0", "SubClasses": "AcDbEntity:AcDbMText", "EntityHandle": "3A44", "Text": "{\\C256;1:1000}" }, "geometry": { "type": "Point", "coordinates": [ 786009.928821422508918, 9602924.552570331841707, 1732.863705707711006 ] } },
{ "type": "Feature", "properties": { "Layer": "0", "SubClasses": "AcDbEntity:AcDbMText", "EntityHandle": "3A48", "Text": "{\\C256;A3}" }, "geometry": { "type": "Point", "coordinates": [ 786028.706722513423301, 9602953.477067813277245, 1732.863705707711006 ] } },
{ "type": "Feature", "properties": { "Layer": "0", "SubClasses": "AcDbEntity:AcDbMText", "EntityHandle": "3A83", "Text": "{\\C256;1:10}" }, "geometry": { "type": "Point", "coordinates": [ 786009.928821422508918, 9602924.552570331841707, 1732.863705707711006 ] } },
{ "type": "Feature", "properties": { "Layer": "0", "SubClasses": "AcDbEntity:AcDbMText", "EntityHandle": "3A89", "Text": "{\\C256;A3}" }, "geometry": { "type": "Point", "coordinates": [ 786028.706722513423301, 9602953.477067813277245, 1732.863705707711006 ] } },
{ "type": "Feature", "properties": { "Layer": "0", "SubClasses": "AcDbEntity:AcDbMText", "EntityHandle": "3AC4", "Text": "{\\C256;1:1000}" }, "geometry": { "type": "Point", "coordinates": [ 786009.928821422508918, 9602924.552570331841707, 1732.863705707711006 ] } },
{ "type": "Feature", "properties": { "Layer": "0", "SubClasses": "AcDbEntity:AcDbMText", "EntityHandle": "3AC8", "Text": "{\\C256;A3}" }, "geometry": { "type": "Point", "coordinates": [ 786028.706722513423301, 9602953.477067813277245, 1732.863705707711006 ] } },
{ "type": "Feature", "properties": { "Layer": "0", "SubClasses": "AcDbEntity:AcDbMText", "EntityHandle": "3B01", "Text": "{\\C256;1:10}" }, "geometry": { "type": "Point", "coordinates": [ 786009.928821422508918, 9602924.552570331841707, 1732.863705707711006 ] } },
{ "type": "Feature", "properties": { "Layer": "road", "SubClasses": "AcDbEntity:AcDbPolyline", "Linetype": "Continuous", "EntityHandle": "3B0C" }, "geometry": { "type": "LineString", "coordinates": [ [ 785019.322068818495609, 9604311.202944817021489, 1246.0 ], [ 785045.0, 9604280.0, 1246.0 ], [ 785040.398913511424325, 9604261.55261779949069, 1246.0 ], [ 785008.629259883775376, 9604252.15915329195559, 1246.0 ], [ 784977.113167163450271, 9604266.92322594486177, 1246.0 ], [ 784939.027548715588637, 9604269.688317220658064, 1246.0 ], [ 784925.719510331749916, 9604263.412116492167115, 1246.0 ], [ 784899.239244580850936, 9604278.865637803450227, 1246.0 ], [ 784879.13448575406801, 9604290.527278073132038, 1246.0 ], [ 784865.645975776715204, 9604310.824045687913895, 1246.0 ], [ 784853.733771811588667, 9604325.653811814263463, 1246.0 ], [ 784830.957922507659532, 9604336.488149542361498, 1246.0 ], [ 784819.061543311108835, 9604334.887938043102622, 1246.0 ], [ 784814.76636397279799, 9604338.948524702340364, 1246.0 ], [ 784816.976812328561209, 9604345.492267303168774, 1246.0 ], [ 784806.937864238861948, 9604365.689890084788203, 1246.0 ], [ 784799.299413223750889, 9604375.778700593858957, 1246.0 ], [ 784821.712486086064018, 9604389.522951669991016, 1246.0 ], [ 784836.931827875669114, 9604408.594253104180098, 1246.0 ], [ 784839.030439406866208, 9604426.141012569889426, 1246.0 ], [ 784835.253828263143077, 9604433.934775099158287, 1246.0 ], [ 784854.114442473859526, 9604452.219963954761624, 1246.0 ], [ 784867.626473722048104, 9604470.570934876799583, 1246.0 ], [ 784876.0, 9604490.0, 1246.0 ], [ 784878.0, 9604507.0, 1246.0 ], [ 784871.0, 9604513.0, 1246.0 ], [ 784863.808164890157059, 9604536.679986424744129, 1246.0 ], [ 784862.602438656496815, 9604544.429237544536591, 1246.0 ], [ 784874.976792394532822, 9604556.985643960535526, 1246.0 ], [ 784898.483016737154685, 9604569.497053494676948, 1246.0 ], [ 784909.269538982072845, 9604575.109298685565591, 1246.0 ], [ 784916.072511049336754, 9604586.10759337246418, 1246.0 ], [ 784925.0, 9604606.0, 1246.0 ], [ 784925.318422190146521, 9604630.023704184219241, 1246.0 ], [ 784931.0, 9604657.0, 1246.0 ], [ 784918.270181260537356, 9604672.762510335072875, 1246.0 ], [ 784909.610418313764967, 9604693.607179563492537, 1246.0 ], [ 784904.747110692085698, 9604710.730081256479025, 1246.0 ], [ 784894.249233720009215, 9604718.219802493229508, 1246.0 ], [ 784854.0, 9604725.0, 1246.0 ], [ 784842.53247953846585, 9604764.226743953302503, 1246.0 ], [ 784857.001491182600148, 9604794.875617314130068, 1246.0 ], [ 784883.518502217368223, 9604796.980328593403101, 1246.0 ], [ 784901.792054960504174, 9604764.817123733460903, 1246.0 ], [ 784921.281475389841944, 9604732.845634132623672, 1246.0 ], [ 784937.510733429226093, 9604718.370431419461966, 1246.0 ], [ 784969.820626135449857, 9604704.297978376969695, 1246.0 ], [ 784997.696701966342516, 9604699.797296188771725, 1246.0 ], [ 784997.696701966342516, 9604673.0, 1246.0 ], [ 784992.180280840024352, 9604650.569082669913769, 1246.0 ], [ 784983.631926221656613, 9604626.72654908336699, 1246.0 ], [ 784994.46868188015651, 9604592.31122237443924, 1246.0 ], [ 784996.694339256850071, 9604559.872865488752723, 1246.0 ], [ 784994.328131310176104, 9604521.797565907239914, 1246.0 ], [ 784982.33231382095255, 9604497.640799127519131, 1246.0 ], [ 784977.414415046339855, 9604480.939061472192407, 1246.0 ], [ 784973.751587398932315, 9604466.360053332522511, 1246.0 ], [ 784966.871371052693576, 9604443.1213772688061, 1246.0 ], [ 784962.971469981712289, 9604418.519225751981139, 1246.0 ], [ 784980.43202542536892, 9604413.424949996173382, 1246.0 ], [ 784992.111015113885514, 9604406.07880862057209, 1246.0 ], [ 785014.197426691302098, 9604361.384434033185244, 1246.0 ], [ 785066.0, 9604333.0, 1246.0 ], [ 785056.0, 9604320.0, 1246.0 ], [ 785024.0, 9604331.0, 1246.0 ], [ 785007.866316693136469, 9604317.961636969819665, 1246.0 ], [ 785019.322068818495609, 9604311.202944817021489, 1246.0 ] ] } },
{ "type": "Feature", "properties": { "Layer": "road", "SubClasses": "AcDbEntity:AcDbPolyline", "Linetype": "Continuous", "EntityHandle": "3B0D" }, "geometry": { "type": "LineString", "coordinates": [ [ 784678.116899380576797, 9604476.893474044278264, 1245.0 ], [ 784714.0, 9604476.893474044278264, 1245.0 ], [ 784735.0, 9604436.0, 1245.0 ], [ 784679.427627048455179, 9604371.803524339571595, 1245.0 ], [ 784668.0, 9604358.0, 1245.0 ], [ 784652.488855696516111, 9604374.937013320624828, 1245.0 ], [ 784637.0, 9604374.937013320624828, 1245.0 ], [ 784651.0, 9604425.0, 1245.0 ], [ 784665.0, 9604457.0, 1245.0 ], [ 784678.116899380576797, 9604476.893474044278264, 1245.0 ] ] } },
{ "type": "Feature", "properties": { "Layer": "road", "SubClasses": "AcDbEntity:AcDbPolyline", "Linetype": "Continuous", "EntityHandle": "3B0E" }, "geometry": { "type": "LineString", "coordinates": [ [ 784600.09361917770002, 9604287.920037740841508, 1260.0 ], [ 784689.708402126911096, 9604272.047982111573219, 1260.0 ], [ 784797.0, 9604253.0, 1260.0 ], [ 784807.829888712381944, 9604280.491255959495902, 1260.0 ], [ 784779.897908108774573, 9604289.087314182892442, 1260.0 ], [ 784763.192449211142957, 9604330.0, 1260.0 ], [ 784756.414359753369354, 9604424.588510252535343, 1260.0 ], [ 784806.279452316346578, 9604472.490990603342652, 1260.0 ], [ 784810.338137851911597, 9604509.122645394876599, 1260.0 ], [ 784808.250277619692497, 9604541.230616096407175, 1260.0 ], [ 784752.862666822853498, 9604495.668189039453864, 1260.0 ], [ 784740.521142210578546, 9604479.757111750543118, 1260.0 ], [ 784752.853859679191373, 9604436.88498243689537, 1260.0 ], [ 784716.265202433220111, 9604397.02474382892251, 1260.0 ], [ 784666.396227394347079, 9604333.261604536324739, 1260.0 ], [ 784644.167663729516789, 9604344.772022979333997, 1260.0 ], [ 784644.167663729516789, 9604358.0, 1260.0 ], [ 784636.061912659555674, 9604359.879531526938081, 1260.0 ], [ 784622.502431237371638, 9604324.522793047130108, 1260.0 ], [ 784580.907025793916546, 9604302.63414665684104, 1260.0 ], [ 784585.812606997322291, 9604290.034922063350677, 1260.0 ], [ 784600.09361917770002, 9604287.920037740841508, 1260.0 ] ] } },
{ "type": "Feature", "properties": { "Layer": "road", "SubClasses": "AcDbEntity:AcDbPolyline", "Linetype": "Continuous", "EntityHandle": "3B10" }, "geometry": { "type": "LineString", "coordinates": [ [ 785273.402401718078181, 9604124.107669208198786, 1320.0 ], [ 785274.851989666349255, 9604103.892943598330021, 1320.0 ], [ 785244.698376363143325, 9604071.380823841318488, 1320.0 ], [ 785213.225783970672637, 9604049.356305805966258, 1320.0 ], [ 785192.392892772448249, 9604046.026112226769328, 1320.0 ], [ 785168.629324859241024, 9604055.452063769102097, 1320.0 ], [ 785132.77461826405488, 9604046.166159687563777, 1320.0 ], [ 785099.825249227345921, 9604036.081646541133523, 1320.0 ], [ 785095.596223306143656, 9604044.336032653227448, 1320.0 ], [ 785107.058104828582145, 9604075.614773493260145, 1320.0 ], [ 785101.659175192471594, 9604094.957837140187621, 1320.0 ], [ 785100.84401484625414, 9604101.798580303788185, 1320.0 ], [ 785133.385362131870352, 9604107.516810907050967, 1320.0 ], [ 785175.171590128098615, 9604113.481918355450034, 1320.0 ], [ 785200.0, 9604127.0, 1320.0 ], [ 785211.466972187859938, 9604110.023125087842345, 1320.0 ], [ 785231.98419406497851, 9604104.290544975548983, 1320.0 ], [ 785267.0, 9604127.0, 1320.0 ], [ 785273.402401718078181, 9604124.107669208198786, 1320.0 ] ] } },
{ "type": "Feature", "properties": { "Layer": "road", "SubClasses": "AcDbEntity:AcDbPolyline", "Linetype": "Continuous", "EntityHandle": "3B11" }, "geometry": { "type": "LineString", "coordinates": [ [ 785203.0, 9604141.0 ], [ 785225.0, 9604115.0 ], [ 785259.0, 9604128.0 ], [ 785277.785466136643663, 9604143.255016732960939 ], [ 785295.912162577849813, 9604175.146191287785769 ], [ 785317.608770266990177, 9604193.611150484532118 ], [ 785314.987729321583174, 9604206.496689246967435 ], [ 785302.0, 9604206.496689246967435 ], [ 785282.0, 9604196.0 ], [ 785256.010556325200014, 9604178.620484096929431 ], [ 785235.542950439848937, 9604168.940541762858629 ], [ 785217.313210987253115, 9604151.658085260540247 ], [ 785203.0, 9604141.0 ] ] } },
{ "type": "Feature", "properties": { "Layer": "road", "SubClasses": "AcDbEntity:AcDbPolyline", "Linetype": "Continuous", "EntityHandle": "3B12" }, "geometry": { "type": "LineString", "coordinates": [ [ 785102.0, 9604172.0 ], [ 785120.061496591079049, 9604157.276417536661029 ], [ 785162.0, 9604147.0 ], [ 785192.0, 9604147.0 ], [ 785208.039357255562209, 9604165.377228261902928 ], [ 785230.0, 9604165.377228261902928 ], [ 785242.0, 9604186.0 ], [ 785272.0, 9604197.0 ], [ 785299.0, 9604219.0 ], [ 785322.0, 9604219.0 ], [ 785345.591135388705879, 9604265.756600921973586 ], [ 785328.0, 9604278.0 ], [ 785311.0, 9604254.0 ], [ 785287.0, 9604254.0 ], [ 785271.0, 9604270.0 ], [ 785234.0, 9604270.0 ], [ 785217.502379684941843, 9604258.833610249683261 ], [ 785195.0, 9604258.833610249683261 ], [ 785187.0, 9604245.0 ], [ 785187.0, 9604219.0 ], [ 785172.99045390705578, 9604203.843738403171301 ], [ 785151.0, 9604203.843738403171301 ], [ 785102.0, 9604172.0 ] ] } },
{ "type": "Feature", "properties": { "Layer": "road", "SubClasses": "AcDbEntity:AcDbPolyline", "Linetype": "Continuous", "EntityHandle": "3B14" }, "geometry": { "type": "LineString", "coordinates": [ [ 785306.87335094215814, 9604529.881571136415005, 1289.0 ], [ 785320.01118376199156, 9604591.374211495742202, 1289.0 ], [ 785352.494041275465861, 9604603.404130229726434, 1289.0 ], [ 785372.549610849120654, 9604658.218250546604395, 1289.0 ], [ 785397.075552616734058, 9604643.732472172006965, 1289.0 ], [ 785397.075552616734058, 9604597.0, 1289.0 ], [ 785392.128944749827497, 9604568.124179117381573, 1289.0 ], [ 785395.12232997152023, 9604541.239013157784939, 1289.0 ], [ 785414.335424136952497, 9604517.637019688263535, 1289.0 ], [ 785425.362145005492494, 9604504.468980772420764, 1289.0 ], [ 785413.0, 9604492.0, 1289.0 ], [ 785406.421655203797854, 9604474.004969943314791, 1289.0 ], [ 785424.085492588113993, 9604439.937689263373613, 1289.0 ], [ 785424.085492588113993, 9604399.0, 1289.0 ], [ 785457.0, 9604367.0, 1289.0 ], [ 785409.942135946825147, 9604329.538598503917456, 1289.0 ], [ 785365.0, 9604321.0, 1289.0 ], [ 785325.93637405813206, 9604296.691437562927604, 1289.0 ], [ 785303.99994948762469, 9604271.551409706473351, 1289.0 ], [ 785279.0, 9604282.0, 1289.0 ], [ 785242.0, 9604282.0, 1289.0 ], [ 785198.0, 9604282.0, 1289.0 ], [ 785183.0, 9604299.0, 1289.0 ], [ 785229.045221456908621, 9604357.164863416925073, 1289.0 ], [ 785275.0, 9604377.0, 1289.0 ], [ 785309.829180982662365, 9604414.722895843908191, 1289.0 ], [ 785334.003705387352966, 9604444.810505956411362, 1289.0 ], [ 785354.451979642151855, 9604506.734573662281036, 1289.0 ], [ 785306.87335094215814, 9604529.881571136415005, 1289.0 ] ] } },
{ "type": "Feature", "properties": { "Layer": "0", "SubClasses": "AcDbEntity:AcDbMText", "EntityHandle": "3B1C", "Text": "1290m" }, "geometry": { "type": "Point", "coordinates": [ 785293.304989082389511, 9604337.104019610211253, 1290.0 ] } },
{ "type": "Feature", "properties": { "Layer": "road", "SubClasses": "AcDbEntity:AcDbPolyline", "Linetype": "Continuous", "EntityHandle": "3B1D" }, "geometry": { "type": "LineString", "coordinates": [ [ 785442.5613308257889, 9604380.888726843520999, 1289.0 ], [ 785429.722313754027709, 9604412.024213252589107, 1289.0 ], [ 785428.847718081204221, 9604452.296663543209434, 1289.0 ], [ 785412.0, 9604479.0, 1289.0 ], [ 785426.0, 9604496.0, 1289.0 ], [ 785449.045040259254165, 9604508.642790483310819, 1289.0 ], [ 785482.577506038127467, 9604488.495394669473171, 1289.0 ], [ 785511.0, 9604510.0, 1289.0 ], [ 785520.844258609809913, 9604496.891221340745687, 1289.0 ], [ 785495.244080854579806, 9604469.577053967863321, 1289.0 ], [ 785474.240435453946702, 9604433.586793826892972, 1289.0 ], [ 785462.163418098469265, 9604390.231689523905516, 1289.0 ], [ 785442.5613308257889, 9604380.888726843520999, 1289.0 ] ] } },
{ "type": "Feature", "properties": { "Layer": "0", "SubClasses": "AcDbEntity:AcDbMText", "EntityHandle": "3B23", "Text": "1280m" }, "geometry": { "type": "Point", "coordinates": [ 785433.732005735277198, 9604474.218574374914169, 1281.0 ] } },
{ "type": "Feature", "properties": { "Layer": "0", "SubClasses": "AcDbEntity:AcDbMText", "EntityHandle": "3B29", "Text": "1300m" }, "geometry": { "type": "Point", "coordinates": [ 785208.71432977472432, 9604228.128124285489321, 2592.0 ] } },
{ "type": "Feature", "properties": { "Layer": "0", "SubClasses": "AcDbEntity:AcDbMText", "EntityHandle": "3B2F", "Text": "1310m" }, "geometry": { "type": "Point", "coordinates": [ 785225.495994720607996, 9604157.457081995904446, 2600.0 ] } },
{ "type": "Feature", "properties": { "Layer": "0", "SubClasses": "AcDbEntity:AcDbMText", "EntityHandle": "3B35", "Text": "1320m" }, "geometry": { "type": "Point", "coordinates": [ 785162.000085338018835, 9604086.999801820144057, 1290.0 ] } },
{ "type": "Feature", "properties": { "Layer": "0", "SubClasses": "AcDbEntity:AcDbMText", "EntityHandle": "3B3B", "Text": "1245m" }, "geometry": { "type": "Point", "coordinates": [ 784883.00008533813525, 9604360.999801818281412, 1290.0 ] } },
{ "type": "Feature", "properties": { "Layer": "0", "SubClasses": "AcDbEntity:AcDbMText", "EntityHandle": "3B41", "Text": "1260m" }, "geometry": { "type": "Point", "coordinates": [ 784688.826805502176285, 9604317.113898979499936, 2550.0 ] } },
{ "type": "Feature", "properties": { "Layer": "0", "SubClasses": "AcDbEntity:AcDbMText", "EntityHandle": "3B47", "Text": "1245m" }, "geometry": { "type": "Point", "coordinates": [ 784664.000085337786004, 9604426.999801820144057, 1290.0 ] } },
{ "type": "Feature", "properties": { "Layer": "0", "SubClasses": "AcDbEntity:AcDbMText", "EntityHandle": "3B6D", "Text": "1355m" }, "geometry": { "type": "Point", "coordinates": [ 785257.004189499537461, 9603935.764183599501848, 2637.0 ] } },
{ "type": "Feature", "properties": { "Layer": "road", "SubClasses": "AcDbEntity:AcDbPolyline", "EntityHandle": "3B7A" }, "geometry": { "type": "LineString", "coordinates": [ [ 784195.778035595780239, 9604390.921499691903591 ], [ 784486.348030446097255, 9604097.204417752102017 ], [ 784466.192927822005004, 9604058.601632224395871 ], [ 784355.339587072841823, 9604100.561181712895632 ], [ 784294.874187094857916, 9604179.445213256403804 ], [ 784239.802952276542783, 9604200.335486855357885 ], [ 784204.304414318525232, 9604229.129558421671391 ], [ 784205.492249218048528, 9604275.906527632847428 ], [ 784199.808983439696021, 9604311.946356061846018 ], [ 784193.102354467846453, 9604341.292347462847829 ], [ 784193.706211891258135, 9604376.47412776760757 ], [ 784195.778035595780239, 9604390.921499691903591 ] ] } },
{ "type": "Feature", "properties": { "Layer": "road", "SubClasses": "AcDbEntity:AcDbPolyline", "Linetype": "Continuous", "EntityHandle": "3B93" }, "geometry": { "type": "LineString", "coordinates": [ [ 785279.303469790611416, 9604113.377756075933576, 1321.0 ], [ 785272.509628885891289, 9604100.075374472886324, 1321.0 ], [ 785264.430829648626968, 9604086.458837583661079, 1321.0 ], [ 785253.285152499796823, 9604073.918154427781701, 1321.0 ], [ 785245.928783339215443, 9604066.750075347721577, 1321.0 ], [ 785225.987439628341235, 9604047.530935533344746, 1321.0 ], [ 785201.257738248328678, 9604031.721893234178424, 1321.0 ], [ 785193.984165360685438, 9604016.354517046362162, 1321.0 ], [ 785164.861839143442921, 9604007.043455762788653, 1321.0 ], [ 785137.109620050527155, 9604002.370323348790407, 1321.0 ], [ 785104.765892122290097, 9603997.925794363021851, 1321.0 ], [ 785077.581299038254656, 9603984.871943077072501, 1321.0 ] ] } },
{ "type": "Feature", "properties": { "Layer": "road", "SubClasses": "AcDbEntity:AcDbPolyline", "Linetype": "Continuous", "EntityHandle": "3BDF" }, "geometry": { "type": "LineString", "coordinates": [ [ 784303.0, 9604824.0 ], [ 784299.0, 9604827.0 ], [ 784295.0, 9604829.0 ], [ 784292.0, 9604828.0 ], [ 784289.0, 9604826.0 ], [ 784288.0, 9604824.0 ], [ 784287.0, 9604820.0 ], [ 784287.0, 9604816.0 ], [ 784288.0, 9604810.0 ], [ 784289.0, 9604805.0 ], [ 784291.0, 9604800.0 ], [ 784295.0, 9604796.0 ], [ 784299.0, 9604792.0 ], [ 784304.0, 9604785.0 ], [ 784309.0, 9604779.0 ], [ 784314.0, 9604773.0 ], [ 784319.0, 9604764.0 ], [ 784325.0, 9604754.0 ], [ 784330.0, 9604743.0 ], [ 784339.0, 9604727.0 ], [ 784346.0, 9604713.0 ], [ 784352.0, 9604697.0 ], [ 784360.0, 9604685.0 ] ] } },
{ "type": "Feature", "properties": { "Layer": "road", "SubClasses": "AcDbEntity:AcDbPolyline", "Linetype": "Continuous", "EntityHandle": "3BE0" }, "geometry": { "type": "LineString", "coordinates": [ [ 784311.0, 9604834.0 ], [ 784305.0, 9604838.0 ], [ 784299.0, 9604839.0 ], [ 784286.0, 9604841.0 ], [ 784282.0, 9604839.0 ], [ 784278.0, 9604833.0 ], [ 784275.0, 9604822.0 ], [ 784275.0, 9604817.0 ], [ 784276.0, 9604809.0 ], [ 784277.0, 9604801.0 ], [ 784281.0, 9604792.0 ], [ 784285.0, 9604783.0 ], [ 784292.0, 9604775.0 ], [ 784297.0, 9604766.0 ], [ 784303.0, 9604756.0 ], [ 784308.0, 9604747.0 ], [ 784314.0, 9604735.0 ], [ 784319.0, 9604723.0 ], [ 784324.0, 9604713.0 ], [ 784331.0, 9604701.0 ], [ 784337.0, 9604690.0 ], [ 784343.0, 9604680.0 ] ] } },
{ "type": "Feature", "properties": { "Layer": "road", "SubClasses": "AcDbEntity:AcDbPolyline", "Linetype": "Continuous", "EntityHandle": "3BF0" }, "geometry": { "type": "LineString", "coordinates": [ [ 784150.0, 9604870.0 ], [ 784156.0, 9604873.0 ], [ 784160.0, 9604876.0 ], [ 784168.0, 9604877.0 ], [ 784183.0, 9604877.0 ], [ 784190.0, 9604872.0 ], [ 784201.0, 9604863.0 ], [ 784211.0, 9604854.0 ], [ 784218.0, 9604846.0 ], [ 784229.0, 9604838.0 ], [ 784237.0, 9604830.0 ], [ 784247.0, 9604823.0 ], [ 784254.0, 9604814.0 ], [ 784263.0, 9604808.0 ], [ 784271.0, 9604798.0 ], [ 784276.0, 9604792.0 ], [ 784281.0, 9604787.0 ], [ 784290.0, 9604777.0 ], [ 784302.0, 9604768.0 ], [ 784311.0, 9604758.0 ], [ 784319.0, 9604751.0 ], [ 784325.0, 9604740.0 ], [ 784335.0, 9604727.0 ], [ 784339.0, 9604720.0 ], [ 784342.0, 9604716.0 ], [ 784344.0, 9604711.0 ], [ 784348.0, 9604703.0 ], [ 784352.0, 9604695.0 ], [ 784356.0, 9604690.0 ], [ 784359.0, 9604685.0 ] ] } },
{ "type": "Feature", "properties": { "Layer": "road", "SubClasses": "AcDbEntity:AcDbPolyline", "Linetype": "Continuous", "EntityHandle": "3BF1" }, "geometry": { "type": "LineString", "coordinates": [ [ 784160.0, 9604861.0 ], [ 784164.0, 9604864.0 ], [ 784170.0, 9604865.0 ], [ 784179.0, 9604867.0 ], [ 784183.0, 9604864.0 ], [ 784189.0, 9604860.0 ], [ 784194.0, 9604855.0 ], [ 784199.0, 9604850.0 ], [ 784207.0, 9604842.0 ], [ 784211.0, 9604836.0 ], [ 784248.0, 9604807.0 ], [ 784305.0, 9604752.0 ], [ 784316.0, 9604730.0 ], [ 784327.0, 9604709.0 ], [ 784343.0, 9604681.0 ] ] } },
{ "type": "Feature", "properties": { "Layer": "road", "SubClasses": "AcDbEntity:AcDbMText", "ExtendedEntity": "AnnotativeData {      1      1 }", "Linetype": "Continuous", "EntityHandle": "3BF6", "Text": "\\pxt0.65124;{\\fSimSun|b0|i0|c134|p2;A}" }, "geometry": { "type": "Point", "coordinates": [ 784741.0, 9603514.0, 0.0 ] } },
{ "type": "Feature", "properties": { "Layer": "road", "SubClasses": "AcDbEntity:AcDbMText", "ExtendedEntity": "AnnotativeData {      1      1 }", "Linetype": "Continuous", "EntityHandle": "3C8D", "Text": "\\pxt0.65124;{\\fSimSun|b0|i0|c134|p2;B}" }, "geometry": { "type": "Point", "coordinates": [ 785157.71784806845244, 9604022.142715845257044, 0.0 ] } },
{ "type": "Feature", "properties": { "Layer": "road", "SubClasses": "AcDbEntity:AcDbMText", "ExtendedEntity": "AnnotativeData {      1      1 }", "Linetype": "Continuous", "EntityHandle": "3C9D", "Text": "\\pxt0.65124;{\\fSimSun|b0|i0|c134|p2;C}" }, "geometry": { "type": "Point", "coordinates": [ 785191.71784806845244, 9604144.142715847119689, 0.0 ] } },
{ "type": "Feature", "properties": { "Layer": "road", "SubClasses": "AcDbEntity:AcDbMText", "ExtendedEntity": "AnnotativeData {      1      1 }", "Linetype": "Continuous", "EntityHandle": "3CAD", "Text": "\\pxt0.65124;{\\fSimSun|b0|i0|c134|p2;D}" }, "geometry": { "type": "Point", "coordinates": [ 785292.71784806845244, 9604277.142715843394399, 0.0 ] } },
{ "type": "Feature", "properties": { "Layer": "road", "SubClasses": "AcDbEntity:AcDbMText", "ExtendedEntity": "AnnotativeData {      1      1 }", "Linetype": "Continuous", "EntityHandle": "3CBD", "Text": "\\pxt0.65124;{\\fSimSun|b0|i0|c134|p2;E}" }, "geometry": { "type": "Point", "coordinates": [ 784682.71784806845244, 9604256.142715843394399, 0.0 ] } },
{ "type": "Feature", "properties": { "Layer": "road", "SubClasses": "AcDbEntity:AcDbMText", "ExtendedEntity": "AnnotativeData {      1      1 }", "Linetype": "Continuous", "EntityHandle": "3CCD", "Text": "\\pxt0.65124;{\\fSimSun|b0|i0|c134|p2;F}" }, "geometry": { "type": "Point", "coordinates": [ 784892.71784806845244, 9604298.142715847119689, 0.0 ] } },
{ "type": "Feature", "properties": { "Layer": "road", "SubClasses": "AcDbEntity:AcDbMText", "ExtendedEntity": "AnnotativeData {      1      1 }", "Linetype": "Continuous", "EntityHandle": "3CDD", "Text": "\\pxt0.65124;{\\fSimSun|b0|i0|c134|p2;G}" }, "geometry": { "type": "Point", "coordinates": [ 784685.717848068568856, 9604347.142715845257044, 0.0 ] } },
{ "type": "Feature", "properties": { "Layer": "road", "SubClasses": "AcDbEntity:AcDbMText", "ExtendedEntity": "AnnotativeData {      1      1 }", "Linetype": "Continuous", "EntityHandle": "3CED", "Text": "\\pxt0.65124;{\\fSimSun|b0|i0|c134|p2;a}" }, "geometry": { "type": "Point", "coordinates": [ 784377.71784806845244, 9604732.142715843394399, 0.0 ] } },
{ "type": "Feature", "properties": { "Layer": "road", "SubClasses": "AcDbEntity:AcDbMText", "ExtendedEntity": "AnnotativeData {      1      1 }", "Linetype": "Continuous", "EntityHandle": "3CFD", "Text": "\\pxt0.65124;{\\fSimSun|b0|i0|c134|p2;b}" }, "geometry": { "type": "Point", "coordinates": [ 784151.71784806845244, 9604772.142715843394399, 0.0 ] } },
{ "type": "Feature", "properties": { "Layer": "road", "SubClasses": "AcDbEntity:AcDbMText", "ExtendedEntity": "AnnotativeData {      1      1 }", "Linetype": "Continuous", "EntityHandle": "3D0D", "Text": "\\pxt0.65124;{\\fSimSun|b0|i0|c134|p2;c}" }, "geometry": { "type": "Point", "coordinates": [ 785594.71784806845244, 9604143.142715845257044, 0.0 ] } },
{ "type": "Feature", "properties": { "Layer": "road", "SubClasses": "AcDbEntity:AcDbMText", "ExtendedEntity": "AnnotativeData {      1      1 }", "Linetype": "Continuous", "EntityHandle": "3D26", "Text": "\\pxt0.65124;{\\fSimSun|b0|i0|c134|p2;1}" }, "geometry": { "type": "Point", "coordinates": [ 784378.71784806845244, 9603796.142715847119689, 0.0 ] } },
{ "type": "Feature", "properties": { "Layer": "road", "SubClasses": "AcDbEntity:AcDbMText", "ExtendedEntity": "AnnotativeData {      1      1 }", "Linetype": "Continuous", "EntityHandle": "3D36", "Text": "\\pxt0.65124;{\\fSimSun|b0|i0|c134|p2;2}" }, "geometry": { "type": "Point", "coordinates": [ 785130.940757152973674, 9603656.31417241320014, 0.0 ] } },
{ "type": "Feature", "properties": { "Layer": "road", "SubClasses": "AcDbEntity:AcDbMText", "ExtendedEntity": "AnnotativeData {      1      1 }", "Linetype": "Continuous", "EntityHandle": "3D46", "Text": "\\pxt0.65124;{\\fSimSun|b0|i0|c134|p2;3}" }, "geometry": { "type": "Point", "coordinates": [ 784236.940757152973674, 9604132.31417241320014, 0.0 ] } },
{ "type": "Feature", "properties": { "Layer": "road", "SubClasses": "AcDbEntity:AcDbMText", "ExtendedEntity": "AnnotativeData {      1      1 }", "Linetype": "Continuous", "EntityHandle": "3D56", "Text": "\\pxt0.65124;{\\fSimSun|b0|i0|c134|p2;4}" }, "geometry": { "type": "Point", "coordinates": [ 785072.94075715309009, 9603965.31417241320014, 0.0 ] } },
{ "type": "Feature", "properties": { "Layer": "road", "SubClasses": "AcDbEntity:AcDbMText", "ExtendedEntity": "AnnotativeData {      1      1 }", "Linetype": "Continuous", "EntityHandle": "3D66", "Text": "\\pxt0.65124;{\\fSimSun|b0|i0|c134|p2;5}" }, "geometry": { "type": "Point", "coordinates": [ 784562.940757152973674, 9604183.31417241320014, 0.0 ] } },
{ "type": "Feature", "properties": { "Layer": "road", "SubClasses": "AcDbEntity:AcDbMText", "ExtendedEntity": "AnnotativeData {      1      1 }", "Linetype": "Continuous", "EntityHandle": "3D76", "Text": "\\pxt0.65124;{\\fSimSun|b0|i0|c134|p2;6}" }, "geometry": { "type": "Point", "coordinates": [ 785065.940757152857259, 9604170.31417241320014, 0.0 ] } },
{ "type": "Feature", "properties": { "Layer": "road", "SubClasses": "AcDbEntity:AcDbMText", "ExtendedEntity": "AnnotativeData {      1      1 }", "Linetype": "Continuous", "EntityHandle": "3D86", "Text": "\\pxt0.65124;{\\fSimSun|b0|i0|c134|p2;7}" }, "geometry": { "type": "Point", "coordinates": [ 784837.940757152857259, 9604682.314172411337495, 0.0 ] } },
{ "type": "Feature", "properties": { "Layer": "road", "SubClasses": "AcDbEntity:AcDbMText", "ExtendedEntity": "AnnotativeData {      1      1 }", "Linetype": "Continuous", "EntityHandle": "3D96", "Text": "\\pxt0.65124;{\\fSimSun|b0|i0|c134|p2;8}" }, "geometry": { "type": "Point", "coordinates": [ 784801.94075715309009, 9604589.31417241320014, 0.0 ] } },
{ "type": "Feature", "properties": { "Layer": "road", "SubClasses": "AcDbEntity:AcDbMText", "ExtendedEntity": "AnnotativeData {      1      1 }", "Linetype": "Continuous", "EntityHandle": "3DA6", "Text": "\\pxt0.65124;{\\fSimSun|b0|i0|c134|p2;9}" }, "geometry": { "type": "Point", "coordinates": [ 784649.940757152857259, 9604518.31417241320014, 0.0 ] } },
{ "type": "Feature", "properties": { "Layer": "road", "SubClasses": "AcDbEntity:AcDbMText", "ExtendedEntity": "AnnotativeData {      1      1 }", "Linetype": "Continuous", "EntityHandle": "3DB6", "Text": "\\pxt0.65124;{\\fSimSun|b0|i0|c134|p2;10}" }, "geometry": { "type": "Point", "coordinates": [ 784320.940757152857259, 9604602.31417241320014, 0.0 ] } },
{ "type": "Feature", "properties": { "Layer": "road", "SubClasses": "AcDbEntity:AcDbMText", "ExtendedEntity": "AnnotativeData {      1      1 }", "Linetype": "Continuous", "EntityHandle": "3DC6", "Text": "\\pxt0.65124;{\\fSimSun|b0|i0|c134|p2;11}" }, "geometry": { "type": "Point", "coordinates": [ 785319.940757152973674, 9604065.31417241320014, 0.0 ] } },
{ "type": "Feature", "properties": { "Layer": "road", "SubClasses": "AcDbEntity:AcDbMText", "ExtendedEntity": "AnnotativeData {      1      1 }", "Linetype": "Continuous", "EntityHandle": "3DD6", "Text": "\\pxt0.65124;{\\fSimSun|b0|i0|c134|p2;12}" }, "geometry": { "type": "Point", "coordinates": [ 785412.976249354542233, 9604199.567323053255677, 1291.0 ] } },
{ "type": "Feature", "properties": { "Layer": "road", "SubClasses": "AcDbEntity:AcDbMText", "ExtendedEntity": "AnnotativeData {      1      1 }", "Linetype": "Continuous", "EntityHandle": "3DE6", "Text": "\\pxt0.65124;{\\fSimSun|b0|i0|c134|p2;13}" }, "geometry": { "type": "Point", "coordinates": [ 785490.957141539547592, 9604254.322032630443573, 1291.0 ] } },
{ "type": "Feature", "properties": { "Layer": "road", "SubClasses": "AcDbEntity:AcDbMText", "EntityHandle": "3E1F", "Text": "{\\fSimSun|b1|i0|c134|p2;1650m}" }, "geometry": { "type": "Point", "coordinates": [ 784691.0, 9603581.0, 1372.0 ] } },
{ "type": "Feature", "properties": { "Layer": "road", "SubClasses": "AcDbEntity:AcDbMText", "EntityHandle": "3E27", "Text": "{\\fSimSun|b1|i0|c134|p2;1320m}" }, "geometry": { "type": "Point", "coordinates": [ 785234.418728964170441, 9604074.414816686883569, 1372.0 ] } },
{ "type": "Feature", "properties": { "Layer": "road", "SubClasses": "AcDbEntity:AcDbMText", "EntityHandle": "3E2F", "Text": "{\\fSimSun|b1|i0|c134|p2;1300m}" }, "geometry": { "type": "Point", "coordinates": [ 785268.418728964054026, 9604222.414816686883569, 1372.0 ] } },
{ "type": "Feature", "properties": { "Layer": "road", "SubClasses": "AcDbEntity:AcDbMText", "EntityHandle": "3E37", "Text": "{\\fSimSun|b1|i0|c134|p2;1290m}" }, "geometry": { "type": "Point", "coordinates": [ 785378.414400219218805, 9604353.409940639510751, 1372.0 ] } },
{ "type": "Feature", "properties": { "Layer": "road", "SubClasses": "AcDbEntity:AcDbMText", "EntityHandle": "3E3F", "Text": "{\\fSimSun|b1|i0|c134|p2;1260m}" }, "geometry": { "type": "Point", "coordinates": [ 784768.41439309658017, 9604289.409939140081406, 1372.0 ] } },
{ "type": "Feature", "properties": { "Layer": "road", "SubClasses": "AcDbEntity:AcDbMText", "EntityHandle": "3E47", "Text": "{\\fSimSun|b1|i0|c134|p2;1245m}" }, "geometry": { "type": "Point", "coordinates": [ 784978.414396819658577, 9604328.409939788281918, 1372.0 ] } },
{ "type": "Feature", "properties": { "Layer": "road", "SubClasses": "AcDbEntity:AcDbMText", "EntityHandle": "3E4F", "Text": "{\\fSimSun|b1|i0|c134|p2;1245m}" }, "geometry": { "type": "Point", "coordinates": [ 784726.4143859106116, 9604432.409941336140037, 1372.0 ] } },
{ "type": "Feature", "properties": { "Layer": "road", "SubClasses": "AcDbEntity:AcDbMText", "EntityHandle": "3E57", "Text": "{\\fSimSun|b1|i0|c134|p2;1195m}" }, "geometry": { "type": "Point", "coordinates": [ 784403.4143859106116, 9604743.409941336140037, 1372.0 ] } },
{ "type": "Feature", "properties": { "Layer": "road", "SubClasses": "AcDbEntity:AcDbMText", "EntityHandle": "3E5F", "Text": "{\\fSimSun|b1|i0|c134|p2;1195m}" }, "geometry": { "type": "Point", "coordinates": [ 784118.414393079932779, 9604799.409940995275974, 1372.0 ] } },
{ "type": "Feature", "properties": { "Layer": "road", "SubClasses": "AcDbEntity:AcDbMText", "EntityHandle": "3E67", "Text": "{\\fSimSun|b1|i0|c134|p2;1290m}" }, "geometry": { "type": "Point", "coordinates": [ 785560.414393079699948, 9604180.409940997138619, 1372.0 ] } },
{ "type": "Feature", "properties": { "Layer": "road", "SubClasses": "AcDbEntity:AcDbMText", "EntityHandle": "3E6F", "Text": "{\\fSimSun|b1|i0|c134|p2;1570m}" }, "geometry": { "type": "Point", "coordinates": [ 784352.414393079699948, 9603844.409940997138619, 1372.0 ] } },
{ "type": "Feature", "properties": { "Layer": "road", "SubClasses": "AcDbEntity:AcDbMText", "EntityHandle": "3E77", "Text": "{\\fSimSun|b1|i0|c134|p2;1450m}" }, "geometry": { "type": "Point", "coordinates": [ 785171.414393079932779, 9603736.409940997138619, 1372.0 ] } },
{ "type": "Feature", "properties": { "Layer": "road", "SubClasses": "AcDbEntity:AcDbMText", "EntityHandle": "3E7F", "Text": "{\\fSimSun|b1|i0|c134|p2;1370m}" }, "geometry": { "type": "Point", "coordinates": [ 784198.414393079816364, 9604179.409940997138619, 1372.0 ] } },
{ "type": "Feature", "properties": { "Layer": "road", "SubClasses": "AcDbEntity:AcDbMText", "EntityHandle": "3E87", "Text": "{\\fSimSun|b1|i0|c134|p2;1340m}" }, "geometry": { "type": "Point", "coordinates": [ 785063.414393079699948, 9604035.409940997138619, 1372.0 ] } },
{ "type": "Feature", "properties": { "Layer": "road", "SubClasses": "AcDbEntity:AcDbMText", "EntityHandle": "3E8F", "Text": "{\\fSimSun|b1|i0|c134|p2;1290m}" }, "geometry": { "type": "Point", "coordinates": [ 784528.414393079699948, 9604227.409940997138619, 1372.0 ] } },
{ "type": "Feature", "properties": { "Layer": "road", "SubClasses": "AcDbEntity:AcDbMText", "EntityHandle": "3E97", "Text": "{\\fSimSun|b1|i0|c134|p2;1260m}" }, "geometry": { "type": "Point", "coordinates": [ 785114.414397110929713, 9604233.409942723810673, 1372.0 ] } },
{ "type": "Feature", "properties": { "Layer": "road", "SubClasses": "AcDbEntity:AcDbMText", "EntityHandle": "3E9F", "Text": "{\\fSimSun|b1|i0|c134|p2;1245m}" }, "geometry": { "type": "Point", "coordinates": [ 784816.414397111046128, 9604734.409942723810673, 1372.0 ] } },
{ "type": "Feature", "properties": { "Layer": "road", "SubClasses": "AcDbEntity:AcDbMText", "EntityHandle": "3EAE", "Text": "{\\fSimSun|b1|i0|c134|p2;1245m}" }, "geometry": { "type": "Point", "coordinates": [ 784764.414397110929713, 9604656.409942725673318, 1372.0 ] } },
{ "type": "Feature", "properties": { "Layer": "road", "SubClasses": "AcDbEntity:AcDbMText", "EntityHandle": "3EB6", "Text": "{\\fSimSun|b1|i0|c134|p2;1245m}" }, "geometry": { "type": "Point", "coordinates": [ 784642.414397111046128, 9604585.409942725673318, 1372.0 ] } },
{ "type": "Feature", "properties": { "Layer": "road", "SubClasses": "AcDbEntity:AcDbMText", "EntityHandle": "3EBE", "Text": "{\\fSimSun|b1|i0|c134|p2;1200m}" }, "geometry": { "type": "Point", "coordinates": [ 784258.414397110929713, 9604662.409942723810673, 1372.0 ] } },
{ "type": "Feature", "properties": { "Layer": "road", "SubClasses": "AcDbEntity:AcDbMText", "EntityHandle": "3EC6", "Text": "{\\fSimSun|b1|i0|c134|p2;1320m}" }, "geometry": { "type": "Point", "coordinates": [ 785336.414397110929713, 9604062.409942725673318, 1372.0 ] } },
{ "type": "Feature", "properties": { "Layer": "road", "SubClasses": "AcDbEntity:AcDbMText", "EntityHandle": "3ECE", "Text": "{\\fSimSun|b1|i0|c134|p2;1300m}" }, "geometry": { "type": "Point", "coordinates": [ 785423.625497477245517, 9604178.473688503727317, 1372.0 ] } },
{ "type": "Feature", "properties": { "Layer": "road", "SubClasses": "AcDbEntity:AcDbMText", "EntityHandle": "3ED6", "Text": "{\\fSimSun|b1|i0|c134|p2;1290m}" }, "geometry": { "type": "Point", "coordinates": [ 785492.430774359381758, 9604248.417802343145013, 2663.0 ] } },
{ "type": "Feature", "properties": { "Layer": "road", "SubClasses": "AcDbEntity:AcDbPolyline", "Linetype": "Continuous", "EntityHandle": "3F0B" }, "geometry": { "type": "LineString", "coordinates": [ [ 785302.0, 9604079.0 ], [ 785299.0, 9604070.0 ], [ 785295.0, 9604061.0 ], [ 785292.0, 9604054.0 ], [ 785287.0, 9604047.0 ], [ 785280.0, 9604040.0 ], [ 785272.0, 9604033.0 ], [ 785267.0, 9604025.0 ], [ 785260.0, 9604017.0 ], [ 785253.0, 9604010.0 ], [ 785242.0, 9604000.0 ], [ 785233.0, 9603991.0 ], [ 785220.0, 9603985.0 ], [ 785208.0, 9603976.0 ], [ 785203.0, 9603969.0 ], [ 785193.0, 9603968.0 ], [ 785183.0, 9603970.0 ], [ 785174.0, 9603964.0 ], [ 785163.0, 9603959.0 ], [ 785163.0, 9603959.0 ], [ 785163.0, 9603959.0 ], [ 785163.0, 9603959.0 ], [ 785163.0, 9603959.0 ], [ 785163.0, 9603959.0 ] ] } },
{ "type": "Feature", "properties": { "Layer": "0", "SubClasses": "AcDbEntity:AcDbMText", "Linetype": "Continuous", "EntityHandle": "3FBE", "Text": "12m" }, "geometry": { "type": "Point", "coordinates": [ 1.0, 0.0, 0.0 ] } },
{ "type": "Feature", "properties": { "Layer": "road", "SubClasses": "AcDbEntity:AcDbLine", "Linetype": "Continuous", "EntityHandle": "40CC" }, "geometry": { "type": "LineString", "coordinates": [ [ 785546.784333716263063, 9604070.139341803267598, 0.0 ], [ 785521.538059453829192, 9604064.142287600785494, 0.0 ] ] } },
{ "type": "Feature", "properties": { "Layer": "road", "SubClasses": "AcDbEntity:AcDbFace", "EntityHandle": "4116" }, "geometry": { "type": "Polygon", "coordinates": [ [ [ 784322.467178865103051, 9604845.280872203409672, 0.0 ], [ 784294.725163912051357, 9604813.816906416788697, 0.0 ], [ 784308.251202781451866, 9604801.850481454282999, 0.0 ], [ 784335.951735631097108, 9604833.391437228769064, 0.0 ], [ 784322.467178865103051, 9604845.280872203409672, 0.0 ] ] ] } }
]
}
