{
    "success": true,
    "code": 200,
    "message": "操作成功",
    "data": [
      {
        "truckId": 0,
        "truckName": "T01",
        "driverId": 0,
        "driverName": "张三",
        "truckOil": 80,
        "truckState": "运矿",
        "truckGrade": 0.59
      },
      {
        "truckId": 1,
        "truckName": "T02",
        "driverId": 1,
        "driverName": "李四",
        "truckOil": 20,
        "truckState": "运岩",
        "truckGrade": 0.60
      },
      {
        "truckId": 2,
        "truckName": "T03",
        "driverId": 2,
        "driverName": "王五",
        "truckOil": 30,
        "truckState": "空闲",
        "truckGrade": 0.58
      },
      {
        "truckId": 3,
        "truckName": "T04",
        "driverId": 3,
        "driverName": "赵六",
        "truckOil": 50,
        "truckState": "运矿",
        "truckGrade": 0.53
      },
      {
        "truckId": 4,
        "truckName": "T05",
        "driverId": 0,
        "driverName": "张三",
        "truckOil": 80,
        "truckState": "运矿",
        "truckGrade": 0.59
      },
      {
        "truckId": 5,
        "truckName": "T06",
        "driverId": 1,
        "driverName": "李四",
        "truckOil": 20,
        "truckState": "运岩",
        "truckGrade": 0.60
      },
      {
        "truckId": 6,
        "truckName": "T07",
        "driverId": 2,
        "driverName": "王五",
        "truckOil": 30,
        "truckState": "空闲",
        "truckGrade": 0.58
      },
      {
        "truckId": 7,
        "truckName": "T08",
        "driverId": 3,
        "driverName": "赵六",
        "truckOil": 50,
        "truckState": "运矿",
        "truckGrade": 0.53
      },
      {
        "truckId": 8,
        "truckName": "T09",
        "driverId": 0,
        "driverName": "张三",
        "truckOil": 80,
        "truckState": "运矿",
        "truckGrade": 0.59
      },
      {
        "truckId": 9,
        "truckName": "T10",
        "driverId": 1,
        "driverName": "李四",
        "truckOil": 20,
        "truckState": "运岩",
        "truckGrade": 0.60
      },
      {
        "truckId": 10,
        "truckName": "T11",
        "driverId": 2,
        "driverName": "王五",
        "truckOil": 30,
        "truckState": "空闲",
        "truckGrade": 0.58
      },
      {
        "truckId": 11,
        "truckName": "T12",
        "driverId": 3,
        "driverName": "赵六",
        "truckOil": 50,
        "truckState": "运矿",
        "truckGrade": 0.53
      },
      {
        "truckId": 12,
        "truckName": "T13",
        "driverId": 0,
        "driverName": "张三",
        "truckOil": 80,
        "truckState": "运矿",
        "truckGrade": 0.59
      },
      {
        "truckId": 13,
        "truckName": "T14",
        "driverId": 1,
        "driverName": "李四",
        "truckOil": 20,
        "truckState": "运岩",
        "truckGrade": 0.60
      },
      {
        "truckId": 14,
        "truckName": "T15",
        "driverId": 2,
        "driverName": "王五",
        "truckOil": 30,
        "truckState": "空闲",
        "truckGrade": 0.58
      },
      {
        "truckId": 15,
        "truckName": "T16",
        "driverId": 3,
        "driverName": "赵六",
        "truckOil": 50,
        "truckState": "运矿",
        "truckGrade": 0.53
      },
      {
        "truckId": 16,
        "truckName": "T17",
        "driverId": 0,
        "driverName": "张三",
        "truckOil": 80,
        "truckState": "运矿",
        "truckGrade": 0.59
      },
      {
        "truckId": 17,
        "truckName": "T18",
        "driverId": 1,
        "driverName": "李四",
        "truckOil": 20,
        "truckState": "运岩",
        "truckGrade": 0.60
      },
      {
        "truckId": 18,
        "truckName": "T19",
        "driverId": 2,
        "driverName": "王五",
        "truckOil": 30,
        "truckState": "空闲",
        "truckGrade": 0.58
      },
      {
        "truckId": 19,
        "truckName": "T20",
        "driverId": 3,
        "driverName": "赵六",
        "truckOil": 50,
        "truckState": "运矿",
        "truckGrade": 0.53
      }
    ]
  }